<?xml version="1.0" encoding="UTF-8" standalone="no"?>
<!-- Created with Inkscape (http://www.inkscape.org/) -->

<svg
   width="180.69386mm"
   height="81.839737mm"
   viewBox="0 0 180.69386 81.839737"
   version="1.1"
   id="svg5"
   inkscape:version="1.1.2 (0a00cf5339, 2022-02-04)"
   sodipodi:docname="02_telemetry_capitalism.svg"
   xmlns:inkscape="http://www.inkscape.org/namespaces/inkscape"
   xmlns:sodipodi="http://sodipodi.sourceforge.net/DTD/sodipodi-0.dtd"
   xmlns="http://www.w3.org/2000/svg"
   xmlns:svg="http://www.w3.org/2000/svg">
  <sodipodi:namedview
     id="namedview7"
     pagecolor="#ffffff"
     bordercolor="#666666"
     borderopacity="1.0"
     inkscape:pageshadow="2"
     inkscape:pageopacity="0.0"
     inkscape:pagecheckerboard="0"
     inkscape:document-units="mm"
     showgrid="false"
     fit-margin-top="0"
     fit-margin-left="0"
     fit-margin-right="0"
     fit-margin-bottom="0"
     inkscape:zoom="3.1108586"
     inkscape:cx="413.3907"
     inkscape:cy="150.28005"
     inkscape:window-width="2560"
     inkscape:window-height="1369"
     inkscape:window-x="0"
     inkscape:window-y="0"
     inkscape:window-maximized="1"
     inkscape:current-layer="layer1" />
  <defs
     id="defs2" />
  <g
     inkscape:label="Layer 1"
     inkscape:groupmode="layer"
     id="layer1"
     transform="translate(-26.328426,-52.140199)">
    <g
       aria-label="there is no
ethical telemetry
under capitalism"
       id="text4940"
       style="font-size:23.4668px;line-height:125%;font-family:'Bitstream Vera Sans';-inkscape-font-specification:'Bitstream Vera Sans, Normal';text-align:center;letter-spacing:0px;word-spacing:0px;text-anchor:middle;stroke-width:1.6px">
      <path
         d="m 64.661353,69.669899 q -2.886416,0 -2.886416,-2.323213 0,-0.187735 0.02347,-0.469336 0.02347,-0.281602 0.0704,-0.539737 l 1.267207,-6.359503 h -1.736543 l 0.516269,-2.628281 h 0.844805 q 0.750938,0 1.009073,-0.305069 0.258134,-0.305068 0.375468,-0.938672 l 0.422403,-2.088545 h 3.050684 l -0.657071,3.332286 h 2.464015 l -0.539737,2.628281 h -2.464014 l -1.408008,7.063507 h 2.229346 l -0.51627,2.628282 z"
         style="font-style:italic;font-weight:bold;font-family:'IBM Plex Sans';-inkscape-font-specification:'IBM Plex Sans, Bold Italic'"
         id="path43013" />
      <path
         d="m 72.499222,52.304466 h 3.285352 l -1.572275,7.908312 h 0.1408 q 0.704004,-1.478408 1.666143,-2.299746 0.962139,-0.844805 2.417081,-0.844805 1.431475,0 2.182412,0.844805 0.774405,0.821338 0.774405,2.34668 0,0.445869 -0.0704,0.868272 -0.04693,0.398935 -0.140801,0.868271 l -1.009072,5.045362 h 1.24374 l -0.516269,2.628282 h -2.135479 q -0.938672,0 -1.454942,-0.469336 -0.516269,-0.492803 -0.516269,-1.314141 0,-0.211201 0.02347,-0.375469 0.02347,-0.187734 0.04693,-0.281601 l 0.962139,-4.881095 q 0.0704,-0.328535 0.117334,-0.633603 0.04693,-0.328536 0.04693,-0.680538 0,-0.539736 -0.281602,-0.868271 -0.281602,-0.352002 -0.962139,-0.352002 -0.610137,0 -1.10294,0.328535 -0.492802,0.328535 -0.891738,0.797871 -0.422402,0.492803 -0.727471,1.10294 -0.305068,0.58667 -0.445869,1.290674 l -1.267207,6.336036 h -3.285352 z"
         style="font-style:italic;font-weight:bold;font-family:'IBM Plex Sans';-inkscape-font-specification:'IBM Plex Sans, Bold Italic'"
         id="path43015" />
      <path
         d="m 88.433165,69.951501 q -2.628282,0 -3.918956,-1.408008 -1.290674,-1.431475 -1.290674,-3.895489 0,-1.478409 0.469336,-2.839483 0.469336,-1.384541 1.337608,-2.417081 0.868271,-1.056006 2.112012,-1.689609 1.24374,-0.633604 2.769082,-0.633604 0.704004,0 1.478409,0.164268 0.774404,0.164267 1.408008,0.563203 0.65707,0.375469 1.079473,1.032539 0.445869,0.65707 0.445869,1.666143 0,0.962139 -0.445869,1.736543 -0.44587,0.750938 -1.384542,1.314141 -0.938672,0.539736 -2.41708,0.868272 -1.478409,0.305068 -3.543487,0.375468 -0.04693,0.211202 -0.04693,0.328536 0,0.117334 0,0.211201 0,0.891738 0.469336,1.431475 0.492803,0.539736 1.713077,0.539736 0.797871,0 1.478408,-0.328535 0.704004,-0.352002 1.525342,-1.384541 l 2.018145,1.595742 q -1.149873,1.525342 -2.41708,2.158946 -1.243741,0.610137 -2.839483,0.610137 z m 1.290674,-10.372326 q -1.056006,0 -1.806944,0.704004 -0.727471,0.680537 -0.938672,1.877344 l -0.09387,0.539736 q 1.314141,-0.0704 2.135479,-0.234668 0.844805,-0.164267 1.314141,-0.398935 0.469336,-0.258135 0.633603,-0.563204 0.164268,-0.305068 0.164268,-0.680537 0,-0.398935 -0.140801,-0.633603 -0.140801,-0.258135 -0.352002,-0.375469 -0.211201,-0.140801 -0.469336,-0.187735 -0.234668,-0.04693 -0.445869,-0.04693 z"
         style="font-style:italic;font-weight:bold;font-family:'IBM Plex Sans';-inkscape-font-specification:'IBM Plex Sans, Bold Italic'"
         id="path43017" />
      <path
         d="M 94.909986,69.669899 97.374,57.349829 h 3.28535 l -0.61013,3.074151 h 0.16426 q 0.18774,-0.492803 0.51627,-1.03254 0.352,-0.563203 0.79787,-1.009072 0.46934,-0.445869 1.05601,-0.727471 0.61014,-0.305068 1.31414,-0.305068 h 0.58667 l -0.65707,3.191485 h -0.82134 q -1.57227,0 -2.39361,0.58667 -0.82134,0.563203 -1.126408,2.065078 l -1.290674,6.476837 z"
         style="font-style:italic;font-weight:bold;font-family:'IBM Plex Sans';-inkscape-font-specification:'IBM Plex Sans, Bold Italic'"
         id="path43019" />
      <path
         d="m 109.64709,69.951501 q -2.62828,0 -3.91895,-1.408008 -1.29068,-1.431475 -1.29068,-3.895489 0,-1.478409 0.46934,-2.839483 0.46933,-1.384541 1.33761,-2.417081 0.86827,-1.056006 2.11201,-1.689609 1.24374,-0.633604 2.76908,-0.633604 0.704,0 1.47841,0.164268 0.7744,0.164267 1.40801,0.563203 0.65707,0.375469 1.07947,1.032539 0.44587,0.65707 0.44587,1.666143 0,0.962139 -0.44587,1.736543 -0.44587,0.750938 -1.38454,1.314141 -0.93867,0.539736 -2.41708,0.868272 -1.47841,0.305068 -3.54349,0.375468 -0.0469,0.211202 -0.0469,0.328536 0,0.117334 0,0.211201 0,0.891738 0.46933,1.431475 0.49281,0.539736 1.71308,0.539736 0.79787,0 1.47841,-0.328535 0.704,-0.352002 1.52534,-1.384541 l 2.01814,1.595742 q -1.14987,1.525342 -2.41708,2.158946 -1.24374,0.610137 -2.83948,0.610137 z m 1.29068,-10.372326 q -1.05601,0 -1.80695,0.704004 -0.72747,0.680537 -0.93867,1.877344 l -0.0939,0.539736 q 1.31414,-0.0704 2.13548,-0.234668 0.84481,-0.164267 1.31414,-0.398935 0.46934,-0.258135 0.63361,-0.563204 0.16426,-0.305068 0.16426,-0.680537 0,-0.398935 -0.1408,-0.633603 -0.1408,-0.258135 -0.352,-0.375469 -0.2112,-0.140801 -0.46934,-0.187735 -0.23466,-0.04693 -0.44586,-0.04693 z"
         style="font-style:italic;font-weight:bold;font-family:'IBM Plex Sans';-inkscape-font-specification:'IBM Plex Sans, Bold Italic'"
         id="path43021" />
      <path
         d="m 126.0738,55.988754 q -0.86827,0 -1.29068,-0.328535 -0.39893,-0.328535 -0.39893,-0.891738 0,-0.211202 0.0469,-0.469336 0.0469,-0.258135 0.0939,-0.469336 0.0704,-0.305069 0.2112,-0.610137 0.1408,-0.305069 0.39893,-0.539737 0.25814,-0.234668 0.65708,-0.375469 0.39893,-0.164267 0.9856,-0.164267 0.86827,0 1.26721,0.328535 0.4224,0.328535 0.4224,0.891739 0,0.211201 -0.0469,0.469336 -0.0469,0.258134 -0.0939,0.469336 -0.0704,0.305068 -0.2112,0.610136 -0.1408,0.305069 -0.39894,0.539737 -0.25813,0.234668 -0.65707,0.398935 -0.39893,0.140801 -0.9856,0.140801 z m -1.87735,13.681145 q -0.96214,0 -1.54881,-0.51627 -0.5632,-0.516269 -0.5632,-1.361074 0,-0.234668 0.0704,-0.58667 l 1.97121,-9.856056 h 3.28535 l -1.94774,9.691788 h 1.38454 l -0.51627,2.628282 z"
         style="font-style:italic;font-weight:bold;font-family:'IBM Plex Sans';-inkscape-font-specification:'IBM Plex Sans, Bold Italic'"
         id="path43023" />
      <path
         d="m 132.92606,69.951501 q -1.54881,0 -2.83948,-0.539737 -1.29067,-0.539736 -2.11201,-1.619209 l 2.06508,-1.924278 q 0.51627,0.680537 1.1968,1.079473 0.70401,0.375469 1.76001,0.375469 1.14988,0 1.61921,-0.398936 0.49281,-0.422402 0.49281,-0.962139 0,-0.352002 -0.25814,-0.633603 -0.23467,-0.281602 -0.89174,-0.375469 l -1.24374,-0.164268 q -1.59574,-0.211201 -2.44055,-1.009072 -0.8448,-0.821338 -0.8448,-2.299746 0,-0.868272 0.30507,-1.666143 0.30507,-0.797872 0.93867,-1.408008 0.6336,-0.610137 1.59574,-0.962139 0.96214,-0.375469 2.27628,-0.375469 1.43148,0 2.58135,0.492803 1.17334,0.469336 1.99468,1.454941 l -2.06508,1.924278 q -0.44587,-0.563203 -1.14987,-0.891738 -0.68054,-0.352002 -1.50188,-0.352002 -0.82134,0 -1.31414,0.375469 -0.46934,0.352002 -0.46934,0.915205 0,0.352002 0.23467,0.633603 0.25814,0.281602 0.91521,0.375469 l 1.24374,0.164268 q 1.59574,0.211201 2.44055,1.032539 0.8448,0.797871 0.8448,2.252813 0,0.891738 -0.352,1.713076 -0.32854,0.821338 -1.00907,1.454942 -0.68054,0.610137 -1.68961,0.985606 -1.00908,0.352002 -2.32322,0.352002 z"
         style="font-style:italic;font-weight:bold;font-family:'IBM Plex Sans';-inkscape-font-specification:'IBM Plex Sans, Bold Italic'"
         id="path43025" />
      <path
         d="m 145.45728,69.669899 2.46401,-12.32007 h 3.28536 l -0.56321,2.862949 h 0.1408 q 0.70401,-1.478408 1.66615,-2.299746 0.96214,-0.844805 2.41708,-0.844805 1.43147,0 2.18241,0.844805 0.7744,0.821338 0.7744,2.34668 0,0.445869 -0.0704,0.868272 -0.0469,0.398935 -0.1408,0.868271 l -1.00907,5.045362 h 1.24374 l -0.51627,2.628282 H 155.196 q -0.93867,0 -1.45494,-0.469336 -0.51627,-0.492803 -0.51627,-1.314141 0,-0.211201 0.0235,-0.375469 0.0235,-0.187734 0.0469,-0.281601 l 0.96214,-4.881095 q 0.0704,-0.328535 0.11733,-0.633603 0.0469,-0.328536 0.0469,-0.680538 0,-0.539736 -0.2816,-0.868271 -0.2816,-0.352002 -0.96214,-0.352002 -0.61014,0 -1.10294,0.328535 -0.4928,0.328535 -0.89174,0.797871 -0.4224,0.492803 -0.72747,1.10294 -0.30507,0.58667 -0.44587,1.290674 l -1.26721,6.336036 z"
         style="font-style:italic;font-weight:bold;font-family:'IBM Plex Sans';-inkscape-font-specification:'IBM Plex Sans, Bold Italic'"
         id="path43027" />
      <path
         d="m 164.55924,69.951501 q -2.27628,0 -3.59042,-1.337608 -1.31414,-1.361074 -1.31414,-3.801622 0,-1.666143 0.46933,-3.074151 0.49281,-1.431474 1.33761,-2.464014 0.84481,-1.032539 1.99468,-1.619209 1.17334,-0.58667 2.55788,-0.58667 2.27628,0 3.59042,1.361074 1.31414,1.337608 1.31414,3.778155 0,1.666143 -0.4928,3.097618 -0.46934,1.408008 -1.31414,2.440547 -0.84481,1.03254 -2.01815,1.61921 -1.17334,0.58667 -2.53441,0.58667 z m 0.11733,-2.651749 q 1.92428,0 2.46402,-2.698682 l 0.44587,-2.205879 q 0.0235,-0.117334 0.0469,-0.305069 0.0235,-0.187734 0.0235,-0.422402 0,-0.891738 -0.44587,-1.408008 -0.44587,-0.539737 -1.31414,-0.539737 -1.92428,0 -2.46402,2.698683 l -0.44587,2.205879 q -0.0235,0.117334 -0.0469,0.305068 -0.0235,0.187735 -0.0235,0.422403 0,0.891738 0.44587,1.431475 0.44587,0.516269 1.31414,0.516269 z"
         style="font-style:italic;font-weight:bold;font-family:'IBM Plex Sans';-inkscape-font-specification:'IBM Plex Sans, Bold Italic'"
         id="path43029" />
      <path
         d="m 32.07785,99.759838 q -2.628282,0 -3.918956,-1.408009 -1.290674,-1.431474 -1.290674,-3.895488 0,-1.478409 0.469336,-2.839483 0.469336,-1.384542 1.337607,-2.417081 0.868272,-1.056006 2.112013,-1.689609 1.24374,-0.633604 2.769082,-0.633604 0.704004,0 1.478408,0.164268 0.774405,0.164267 1.408009,0.563203 0.65707,0.375469 1.079472,1.032539 0.44587,0.65707 0.44587,1.666143 0,0.962139 -0.44587,1.736543 -0.445869,0.750938 -1.384541,1.314141 -0.938672,0.539736 -2.41708,0.868272 -1.478409,0.305068 -3.543487,0.375468 -0.04693,0.211202 -0.04693,0.328536 0,0.117334 0,0.211201 0,0.891738 0.469336,1.431475 0.492803,0.539736 1.713077,0.539736 0.797871,0 1.478408,-0.328535 0.704004,-0.352002 1.525342,-1.384541 l 2.018145,1.595742 q -1.149873,1.525342 -2.417081,2.158946 -1.24374,0.610137 -2.839482,0.610137 z m 1.290674,-10.372326 q -1.056006,0 -1.806944,0.704004 -0.727471,0.680537 -0.938672,1.877344 l -0.09387,0.539736 q 1.314141,-0.0704 2.135479,-0.234668 0.844804,-0.164268 1.31414,-0.398936 0.469336,-0.258134 0.633604,-0.563203 0.164268,-0.305068 0.164268,-0.680537 0,-0.398936 -0.140801,-0.633604 -0.140801,-0.258134 -0.352002,-0.375468 -0.211201,-0.140801 -0.469336,-0.187735 -0.234668,-0.04693 -0.445869,-0.04693 z"
         style="font-style:italic;font-weight:bold;font-family:'IBM Plex Sans';-inkscape-font-specification:'IBM Plex Sans, Bold Italic'"
         id="path43031" />
      <path
         d="m 42.497095,99.478236 q -2.886417,0 -2.886417,-2.323213 0,-0.187735 0.02347,-0.469336 0.02347,-0.281602 0.0704,-0.539737 l 1.267207,-6.359503 H 39.23521 l 0.516269,-2.628281 h 0.844805 q 0.750938,0 1.009072,-0.305069 0.258135,-0.305068 0.375469,-0.938672 l 0.422403,-2.088545 h 3.050684 l -0.657071,3.332286 h 2.464014 l -0.539736,2.628281 h -2.464014 l -1.408008,7.063507 h 2.229346 l -0.51627,2.628282 z"
         style="font-style:italic;font-weight:bold;font-family:'IBM Plex Sans';-inkscape-font-specification:'IBM Plex Sans, Bold Italic'"
         id="path43033" />
      <path
         d="m 50.334964,82.112803 h 3.285352 l -1.572275,7.908312 h 0.1408 q 0.704004,-1.478408 1.666143,-2.299746 0.962139,-0.844805 2.417081,-0.844805 1.431475,0 2.182412,0.844805 0.774405,0.821338 0.774405,2.34668 0,0.445869 -0.0704,0.868271 -0.04693,0.398936 -0.140801,0.868272 l -1.009072,5.045362 h 1.24374 l -0.516269,2.628282 H 56.6006 q -0.938672,0 -1.454942,-0.469336 -0.516269,-0.492803 -0.516269,-1.314141 0,-0.211201 0.02347,-0.375469 0.02347,-0.187734 0.04693,-0.281601 l 0.962139,-4.881095 q 0.0704,-0.328535 0.117334,-0.633604 0.04693,-0.328535 0.04693,-0.680537 0,-0.539736 -0.281601,-0.868271 -0.281602,-0.352002 -0.962139,-0.352002 -0.610137,0 -1.10294,0.328535 -0.492802,0.328535 -0.891738,0.797871 -0.422402,0.492803 -0.727471,1.10294 -0.305068,0.58667 -0.445869,1.290674 l -1.267207,6.336036 h -3.285352 z"
         style="font-style:italic;font-weight:bold;font-family:'IBM Plex Sans';-inkscape-font-specification:'IBM Plex Sans, Bold Italic'"
         id="path43035" />
      <path
         d="m 65.072098,85.797091 q -0.868272,0 -1.290674,-0.328535 -0.398936,-0.328535 -0.398936,-0.891739 0,-0.211201 0.04693,-0.469336 0.04693,-0.258134 0.09387,-0.469336 0.0704,-0.305068 0.211201,-0.610136 0.140801,-0.305069 0.398936,-0.539737 0.258135,-0.234668 0.65707,-0.375469 0.398936,-0.164267 0.985606,-0.164267 0.868272,0 1.267207,0.328535 0.422403,0.328535 0.422403,0.891738 0,0.211202 -0.04693,0.469336 -0.04693,0.258135 -0.09387,0.469336 -0.0704,0.305069 -0.211201,0.610137 -0.140801,0.305069 -0.398936,0.539737 -0.258135,0.234668 -0.65707,0.398935 -0.398936,0.140801 -0.985606,0.140801 z m -1.877344,13.681145 q -0.962139,0 -1.548809,-0.51627 -0.563203,-0.516269 -0.563203,-1.361074 0,-0.234668 0.0704,-0.58667 l 1.971212,-9.856056 h 3.285352 l -1.947745,9.691788 h 1.384541 l -0.516269,2.628282 z"
         style="font-style:italic;font-weight:bold;font-family:'IBM Plex Sans';-inkscape-font-specification:'IBM Plex Sans, Bold Italic'"
         id="path43037" />
      <path
         d="m 72.487568,99.759838 q -1.009073,0 -1.900811,-0.281602 -0.868272,-0.305069 -1.525342,-0.938672 -0.657071,-0.657071 -1.03254,-1.666143 -0.375468,-1.009072 -0.375468,-2.440547 0,-1.642676 0.492802,-3.027218 0.492803,-1.384541 1.361075,-2.393613 0.891738,-1.009073 2.088545,-1.572276 1.196807,-0.563203 2.604815,-0.563203 0.868272,0 1.619209,0.234668 0.774405,0.211201 1.337608,0.633604 0.58667,0.422402 0.962139,1.009072 0.375469,0.58667 0.492803,1.314141 l -2.769083,1.056006 q -0.211201,-0.727471 -0.58667,-1.149873 -0.352002,-0.44587 -1.24374,-0.44587 -2.041612,0 -2.557882,2.581348 l -0.422402,2.088546 q -0.117334,0.539736 -0.117334,0.985605 0,0.868272 0.422402,1.408008 0.44587,0.51627 1.431475,0.51627 0.469336,0 0.821338,-0.140801 0.352002,-0.140801 0.610137,-0.398935 0.281602,-0.258135 0.51627,-0.610137 0.234668,-0.352002 0.492802,-0.797871 l 2.510948,1.17334 q -0.821338,1.713076 -2.158946,2.581348 -1.31414,0.844805 -3.07415,0.844805 z"
         style="font-style:italic;font-weight:bold;font-family:'IBM Plex Sans';-inkscape-font-specification:'IBM Plex Sans, Bold Italic'"
         id="path43039" />
      <path
         d="m 88.444936,99.478236 q -0.891738,0 -1.478408,-0.469336 -0.58667,-0.469336 -0.58667,-1.337608 0,-0.187734 0.02347,-0.398935 0.02347,-0.211202 0.04693,-0.305069 l 0.0704,-0.352002 h -0.1408 q -0.727471,1.501875 -1.642676,2.323213 -0.915206,0.821339 -2.370147,0.821339 -0.868272,0 -1.501875,-0.305069 -0.610137,-0.328535 -1.009073,-0.891738 -0.398936,-0.58667 -0.58667,-1.361075 -0.187734,-0.797871 -0.187734,-1.713076 0,-1.971211 0.445869,-3.543487 0.469336,-1.595743 1.24374,-2.722149 0.774405,-1.126406 1.806944,-1.736543 1.056006,-0.610137 2.229346,-0.610137 1.290674,0 2.112012,0.704004 0.844805,0.704004 0.962139,1.713076 h 0.117334 l 0.422402,-2.135478 h 3.285352 l -1.947744,9.691788 h 1.384541 l -0.516269,2.628282 z m -4.458692,-2.417081 q 0.633604,0 1.149873,-0.328535 0.51627,-0.328535 0.891739,-0.797871 0.398935,-0.469336 0.680537,-1.10294 0.305068,-0.65707 0.445869,-1.337607 l 0.375469,-1.877344 q 0.187734,-0.868272 -0.352002,-1.454942 -0.539737,-0.58667 -1.572276,-0.58667 -2.135479,0 -2.698682,2.745616 l -0.328535,1.642676 q -0.04693,0.258135 -0.09387,0.65707 -0.04693,0.398936 -0.04693,0.680537 0,0.821338 0.398936,1.290674 0.422402,0.469336 1.149873,0.469336 z"
         style="font-style:italic;font-weight:bold;font-family:'IBM Plex Sans';-inkscape-font-specification:'IBM Plex Sans, Bold Italic'"
         id="path43041" />
      <path
         d="m 95.086035,99.478236 q -0.962139,0 -1.548809,-0.51627 -0.563203,-0.516269 -0.563203,-1.361074 0,-0.234668 0.0704,-0.58667 l 2.980284,-14.901419 h 3.285352 l -2.956817,14.737151 h 1.454942 l -0.51627,2.628282 z"
         style="font-style:italic;font-weight:bold;font-family:'IBM Plex Sans';-inkscape-font-specification:'IBM Plex Sans, Bold Italic'"
         id="path43043" />
      <path
         d="m 108.62629,99.478236 q -2.88642,0 -2.88642,-2.323213 0,-0.187735 0.0235,-0.469336 0.0235,-0.281602 0.0704,-0.539737 l 1.26721,-6.359503 h -1.73654 l 0.51627,-2.628281 h 0.8448 q 0.75094,0 1.00907,-0.305069 0.25814,-0.305068 0.37547,-0.938672 l 0.4224,-2.088545 h 3.05069 l -0.65707,3.332286 h 2.46401 l -0.53973,2.628281 h -2.46402 l -1.40801,7.063507 h 2.22935 l -0.51627,2.628282 z"
         style="font-style:italic;font-weight:bold;font-family:'IBM Plex Sans';-inkscape-font-specification:'IBM Plex Sans, Bold Italic'"
         id="path43045" />
      <path
         d="m 118.43532,99.759838 q -2.62828,0 -3.91895,-1.408009 -1.29067,-1.431474 -1.29067,-3.895488 0,-1.478409 0.46933,-2.839483 0.46934,-1.384542 1.33761,-2.417081 0.86827,-1.056006 2.11201,-1.689609 1.24374,-0.633604 2.76908,-0.633604 0.70401,0 1.47841,0.164268 0.77441,0.164267 1.40801,0.563203 0.65707,0.375469 1.07947,1.032539 0.44587,0.65707 0.44587,1.666143 0,0.962139 -0.44587,1.736543 -0.44587,0.750938 -1.38454,1.314141 -0.93867,0.539736 -2.41708,0.868272 -1.47841,0.305068 -3.54349,0.375468 -0.0469,0.211202 -0.0469,0.328536 0,0.117334 0,0.211201 0,0.891738 0.46934,1.431475 0.4928,0.539736 1.71307,0.539736 0.79787,0 1.47841,-0.328535 0.70401,-0.352002 1.52534,-1.384541 l 2.01815,1.595742 q -1.14988,1.525342 -2.41708,2.158946 -1.24374,0.610137 -2.83949,0.610137 z M 119.726,89.387512 q -1.05601,0 -1.80694,0.704004 -0.72748,0.680537 -0.93868,1.877344 l -0.0939,0.539736 q 1.31414,-0.0704 2.13547,-0.234668 0.84481,-0.164268 1.31415,-0.398936 0.46933,-0.258134 0.6336,-0.563203 0.16427,-0.305068 0.16427,-0.680537 0,-0.398936 -0.1408,-0.633604 -0.1408,-0.258134 -0.35201,-0.375468 -0.2112,-0.140801 -0.46933,-0.187735 -0.23467,-0.04693 -0.44587,-0.04693 z"
         style="font-style:italic;font-weight:bold;font-family:'IBM Plex Sans';-inkscape-font-specification:'IBM Plex Sans, Bold Italic'"
         id="path43047" />
      <path
         d="m 127.44656,99.478236 q -0.96214,0 -1.54881,-0.51627 -0.5632,-0.516269 -0.5632,-1.361074 0,-0.234668 0.0704,-0.58667 l 2.98028,-14.901419 h 3.28536 l -2.95682,14.737151 h 1.45494 l -0.51627,2.628282 z"
         style="font-style:italic;font-weight:bold;font-family:'IBM Plex Sans';-inkscape-font-specification:'IBM Plex Sans, Bold Italic'"
         id="path43049" />
      <path
         d="m 137.11484,99.759838 q -2.62828,0 -3.91895,-1.408009 -1.29068,-1.431474 -1.29068,-3.895488 0,-1.478409 0.46934,-2.839483 0.46934,-1.384542 1.33761,-2.417081 0.86827,-1.056006 2.11201,-1.689609 1.24374,-0.633604 2.76908,-0.633604 0.70401,0 1.47841,0.164268 0.77441,0.164267 1.40801,0.563203 0.65707,0.375469 1.07947,1.032539 0.44587,0.65707 0.44587,1.666143 0,0.962139 -0.44587,1.736543 -0.44587,0.750938 -1.38454,1.314141 -0.93867,0.539736 -2.41708,0.868272 -1.47841,0.305068 -3.54349,0.375468 -0.0469,0.211202 -0.0469,0.328536 0,0.117334 0,0.211201 0,0.891738 0.46934,1.431475 0.4928,0.539736 1.71307,0.539736 0.79787,0 1.47841,-0.328535 0.704,-0.352002 1.52534,-1.384541 l 2.01815,1.595742 q -1.14988,1.525342 -2.41708,2.158946 -1.24374,0.610137 -2.83949,0.610137 z m 1.29068,-10.372326 q -1.05601,0 -1.80695,0.704004 -0.72747,0.680537 -0.93867,1.877344 l -0.0939,0.539736 q 1.31414,-0.0704 2.13547,-0.234668 0.84481,-0.164268 1.31415,-0.398936 0.46933,-0.258134 0.6336,-0.563203 0.16427,-0.305068 0.16427,-0.680537 0,-0.398936 -0.1408,-0.633604 -0.14081,-0.258134 -0.35201,-0.375468 -0.2112,-0.140801 -0.46933,-0.187735 -0.23467,-0.04693 -0.44587,-0.04693 z"
         style="font-style:italic;font-weight:bold;font-family:'IBM Plex Sans';-inkscape-font-specification:'IBM Plex Sans, Bold Italic'"
         id="path43051" />
      <path
         d="m 143.59167,99.478236 2.46401,-12.32007 h 3.28535 l -0.5632,2.862949 h 0.1408 q 0.68054,-1.454941 1.61921,-2.299746 0.93867,-0.844805 2.34668,-0.844805 1.38454,0 2.11201,0.844805 0.72747,0.821338 0.75094,2.299746 h 0.11733 q 0.68054,-1.384541 1.64268,-2.252813 0.96214,-0.891738 2.44055,-0.891738 1.36107,0 2.06508,0.844805 0.72747,0.821338 0.72747,2.276279 0,0.539737 -0.0939,1.079473 -0.0704,0.51627 -0.18773,1.056006 l -0.93868,4.716827 h 1.24374 l -0.51627,2.628282 h -2.13547 q -0.93868,0 -1.45495,-0.469336 -0.51627,-0.492803 -0.51627,-1.314141 0,-0.211201 0.0235,-0.375469 0.0235,-0.187734 0.0469,-0.281601 l 0.96214,-4.881095 q 0.0704,-0.328535 0.11734,-0.65707 0.0704,-0.328536 0.0704,-0.633604 0,-0.563203 -0.25814,-0.891738 -0.23467,-0.352002 -0.7744,-0.352002 -0.53974,0 -1.03254,0.328535 -0.4928,0.305068 -0.89174,0.774404 -0.39894,0.469336 -0.704,1.126407 -0.30507,0.65707 -0.42241,1.290674 l -1.2672,6.336036 h -3.28536 l 1.45495,-7.321642 q 0.0704,-0.328535 0.11733,-0.65707 0.0469,-0.328536 0.0469,-0.610137 0,-0.58667 -0.25813,-0.915205 -0.23467,-0.352002 -0.84481,-0.352002 -0.61013,0 -1.10294,0.328535 -0.46933,0.305068 -0.86827,0.797871 -0.8448,1.032539 -1.1264,2.393614 l -1.26721,6.336036 z"
         style="font-style:italic;font-weight:bold;font-family:'IBM Plex Sans';-inkscape-font-specification:'IBM Plex Sans, Bold Italic'"
         id="path43053" />
      <path
         d="m 169.78059,99.759838 q -2.62828,0 -3.91895,-1.408009 -1.29068,-1.431474 -1.29068,-3.895488 0,-1.478409 0.46934,-2.839483 0.46934,-1.384542 1.33761,-2.417081 0.86827,-1.056006 2.11201,-1.689609 1.24374,-0.633604 2.76908,-0.633604 0.70401,0 1.47841,0.164268 0.7744,0.164267 1.40801,0.563203 0.65707,0.375469 1.07947,1.032539 0.44587,0.65707 0.44587,1.666143 0,0.962139 -0.44587,1.736543 -0.44587,0.750938 -1.38454,1.314141 -0.93867,0.539736 -2.41708,0.868272 -1.47841,0.305068 -3.54349,0.375468 -0.0469,0.211202 -0.0469,0.328536 0,0.117334 0,0.211201 0,0.891738 0.46933,1.431475 0.49281,0.539736 1.71308,0.539736 0.79787,0 1.47841,-0.328535 0.704,-0.352002 1.52534,-1.384541 l 2.01815,1.595742 q -1.14988,1.525342 -2.41708,2.158946 -1.24374,0.610137 -2.83949,0.610137 z m 1.29068,-10.372326 q -1.05601,0 -1.80695,0.704004 -0.72747,0.680537 -0.93867,1.877344 l -0.0939,0.539736 q 1.31415,-0.0704 2.13548,-0.234668 0.84481,-0.164268 1.31414,-0.398936 0.46934,-0.258134 0.63361,-0.563203 0.16427,-0.305068 0.16427,-0.680537 0,-0.398936 -0.14081,-0.633604 -0.1408,-0.258134 -0.352,-0.375468 -0.2112,-0.140801 -0.46933,-0.187735 -0.23467,-0.04693 -0.44587,-0.04693 z"
         style="font-style:italic;font-weight:bold;font-family:'IBM Plex Sans';-inkscape-font-specification:'IBM Plex Sans, Bold Italic'"
         id="path43055" />
      <path
         d="m 180.19984,99.478236 q -2.88642,0 -2.88642,-2.323213 0,-0.187735 0.0235,-0.469336 0.0235,-0.281602 0.0704,-0.539737 l 1.26721,-6.359503 h -1.73655 l 0.51627,-2.628281 h 0.84481 q 0.75094,0 1.00907,-0.305069 0.25813,-0.305068 0.37547,-0.938672 l 0.4224,-2.088545 h 3.05069 l -0.65708,3.332286 h 2.46402 l -0.53974,2.628281 h -2.46401 l -1.40801,7.063507 h 2.22935 l -0.51627,2.628282 z"
         style="font-style:italic;font-weight:bold;font-family:'IBM Plex Sans';-inkscape-font-specification:'IBM Plex Sans, Bold Italic'"
         id="path43057" />
      <path
         d="m 184.56462,99.478236 2.46402,-12.32007 h 3.28535 l -0.61014,3.07415 h 0.16427 q 0.18773,-0.492802 0.51627,-1.032539 0.352,-0.563203 0.79787,-1.009072 0.46933,-0.445869 1.056,-0.727471 0.61014,-0.305068 1.31415,-0.305068 h 0.58667 l -0.65707,3.191484 h -0.82134 q -1.57228,0 -2.39362,0.58667 -0.82133,0.563204 -1.1264,2.065079 l -1.29068,6.476837 z"
         style="font-style:italic;font-weight:bold;font-family:'IBM Plex Sans';-inkscape-font-specification:'IBM Plex Sans, Bold Italic'"
         id="path43059" />
      <path
         d="m 203.52574,87.158166 h 3.49655 l -7.55631,14.314744 q -0.352,0.68054 -0.75094,1.17334 -0.39893,0.51627 -0.9152,0.84481 -0.51627,0.352 -1.17334,0.51627 -0.65707,0.16427 -1.52535,0.16427 h -1.83041 l 0.53974,-2.62829 h 2.27628 l 0.65707,-1.36107 -1.73654,-13.024074 h 3.26188 l 0.46934,4.646426 0.37547,4.599493 h 0.1408 l 2.06508,-4.599493 z"
         style="font-style:italic;font-weight:bold;font-family:'IBM Plex Sans';-inkscape-font-specification:'IBM Plex Sans, Bold Italic'"
         id="path43061" />
      <path
         d="m 31.350321,116.9665 -1.454941,7.32164 q -0.0704,0.32854 -0.117334,0.65707 -0.04693,0.32854 -0.04693,0.58667 0,0.61014 0.258135,0.96214 0.281601,0.32854 0.891738,0.32854 0.610137,0 1.079473,-0.30507 0.492803,-0.32853 0.891739,-0.82134 0.844804,-1.03254 1.126406,-2.39361 l 1.267207,-6.33604 h 3.285352 l -1.947744,9.69179 h 1.384541 l -0.51627,2.62828 h -2.182412 q -0.891738,0 -1.478408,-0.46933 -0.58667,-0.46934 -0.58667,-1.33761 0,-0.18774 0.02347,-0.39894 0.02347,-0.2112 0.04693,-0.30506 l 0.0704,-0.35201 h -0.1408 q -0.680538,1.45494 -1.61921,2.29975 -0.938672,0.8448 -2.34668,0.8448 -1.408008,0 -2.158945,-0.82133 -0.750938,-0.84481 -0.750938,-2.37015 0,-0.46934 0.04693,-0.89174 0.0704,-0.4224 0.164267,-0.89174 l 1.525342,-7.62671 z"
         style="font-style:italic;font-weight:bold;font-family:'IBM Plex Sans';-inkscape-font-specification:'IBM Plex Sans, Bold Italic'"
         id="path43063" />
      <path
         d="m 39.375939,129.28657 2.464014,-12.32007 h 3.285352 l -0.563203,2.86295 h 0.140801 q 0.704004,-1.47841 1.666143,-2.29974 0.962139,-0.84481 2.41708,-0.84481 1.431475,0 2.182413,0.84481 0.774404,0.82133 0.774404,2.34668 0,0.44586 -0.0704,0.86827 -0.04693,0.39893 -0.140801,0.86827 l -1.009073,5.04536 h 1.243741 l -0.51627,2.62828 h -2.135479 q -0.938672,0 -1.454941,-0.46933 -0.51627,-0.49281 -0.51627,-1.31414 0,-0.21121 0.02347,-0.37547 0.02347,-0.18774 0.04693,-0.2816 l 0.962138,-4.8811 q 0.0704,-0.32853 0.117334,-0.6336 0.04693,-0.32854 0.04693,-0.68054 0,-0.53974 -0.281602,-0.86827 -0.281601,-0.352 -0.962138,-0.352 -0.610137,0 -1.10294,0.32853 -0.492803,0.32854 -0.891739,0.79787 -0.422402,0.49281 -0.72747,1.10294 -0.305069,0.58667 -0.44587,1.29068 l -1.267207,6.33603 z"
         style="font-style:italic;font-weight:bold;font-family:'IBM Plex Sans';-inkscape-font-specification:'IBM Plex Sans, Bold Italic'"
         id="path43065" />
      <path
         d="m 62.936592,129.28657 q -0.891738,0 -1.478408,-0.46933 -0.58667,-0.46934 -0.58667,-1.33761 0,-0.18774 0.02347,-0.39894 0.02347,-0.2112 0.04693,-0.30506 l 0.0704,-0.35201 h -0.1408 q -0.727471,1.50188 -1.642676,2.32322 -0.915206,0.82133 -2.370147,0.82133 -0.868272,0 -1.501876,-0.30506 -0.610136,-0.32854 -1.009072,-0.89174 -0.398936,-0.58667 -0.58667,-1.36108 -0.187734,-0.79787 -0.187734,-1.71307 0,-1.97121 0.445869,-3.54349 0.469336,-1.59574 1.24374,-2.72215 0.774405,-1.12641 1.806944,-1.73654 1.056006,-0.61014 2.229346,-0.61014 1.290674,0 2.112012,0.704 0.844805,0.70401 0.962139,1.71308 h 0.117334 l 1.431475,-7.18084 h 3.285352 l -2.956817,14.73715 h 1.384541 l -0.51627,2.62828 z M 58.4779,126.86949 q 0.633604,0 1.149873,-0.32853 0.51627,-0.32854 0.891739,-0.79787 0.398935,-0.46934 0.680537,-1.10294 0.305068,-0.65707 0.445869,-1.33761 l 0.375469,-1.87735 q 0.187734,-0.93867 -0.352002,-1.4784 -0.539737,-0.56321 -1.572276,-0.56321 -2.135479,0 -2.698682,2.74562 l -0.328535,1.64267 q -0.04693,0.25814 -0.09387,0.65708 -0.04693,0.39893 -0.04693,0.68053 0,0.82134 0.398936,1.29068 0.422402,0.46933 1.149873,0.46933 z"
         style="font-style:italic;font-weight:bold;font-family:'IBM Plex Sans';-inkscape-font-specification:'IBM Plex Sans, Bold Italic'"
         id="path43067" />
      <path
         d="m 72.651836,129.56817 q -2.628282,0 -3.918956,-1.408 -1.290674,-1.43148 -1.290674,-3.89549 0,-1.47841 0.469336,-2.83949 0.469336,-1.38454 1.337608,-2.41708 0.868272,-1.056 2.112012,-1.68961 1.243741,-0.6336 2.769083,-0.6336 0.704004,0 1.478408,0.16427 0.774404,0.16427 1.408008,0.5632 0.657071,0.37547 1.079473,1.03254 0.445869,0.65707 0.445869,1.66614 0,0.96214 -0.445869,1.73655 -0.445869,0.75093 -1.384541,1.31414 -0.938672,0.53973 -2.417081,0.86827 -1.478408,0.30507 -3.543487,0.37547 -0.04693,0.2112 -0.04693,0.32853 0,0.11734 0,0.2112 0,0.89174 0.469336,1.43148 0.492803,0.53974 1.713076,0.53974 0.797871,0 1.478409,-0.32854 0.704004,-0.352 1.525342,-1.38454 l 2.018145,1.59574 q -1.149874,1.52534 -2.417081,2.15895 -1.24374,0.61013 -2.839483,0.61013 z m 1.290674,-10.37232 q -1.056006,0 -1.806943,0.704 -0.727471,0.68054 -0.938672,1.87735 l -0.09387,0.53973 q 1.314141,-0.0704 2.135479,-0.23467 0.844805,-0.16426 1.314141,-0.39893 0.469336,-0.25814 0.633604,-0.5632 0.164267,-0.30507 0.164267,-0.68054 0,-0.39894 -0.140801,-0.6336 -0.1408,-0.25814 -0.352002,-0.37547 -0.211201,-0.1408 -0.469336,-0.18774 -0.234668,-0.0469 -0.445869,-0.0469 z"
         style="font-style:italic;font-weight:bold;font-family:'IBM Plex Sans';-inkscape-font-specification:'IBM Plex Sans, Bold Italic'"
         id="path43069" />
      <path
         d="m 79.128659,129.28657 2.464014,-12.32007 h 3.285352 l -0.610137,3.07415 h 0.164268 q 0.187734,-0.4928 0.51627,-1.03254 0.352002,-0.5632 0.797871,-1.00907 0.469336,-0.44587 1.056006,-0.72747 0.610137,-0.30507 1.314141,-0.30507 h 0.58667 l -0.657071,3.19149 h -0.821338 q -1.572275,0 -2.393613,0.58667 -0.821338,0.5632 -1.126407,2.06508 l -1.290674,6.47683 z"
         style="font-style:italic;font-weight:bold;font-family:'IBM Plex Sans';-inkscape-font-specification:'IBM Plex Sans, Bold Italic'"
         id="path43071" />
      <path
         d="m 99.145775,129.56817 q -1.009072,0 -1.900811,-0.2816 -0.868271,-0.30507 -1.525342,-0.93867 -0.65707,-0.65707 -1.032539,-1.66614 -0.375469,-1.00907 -0.375469,-2.44055 0,-1.64268 0.492803,-3.02722 0.492803,-1.38454 1.361074,-2.39361 0.891739,-1.00907 2.088546,-1.57228 1.196806,-0.5632 2.604813,-0.5632 0.86827,0 1.61921,0.23467 0.77441,0.2112 1.33761,0.6336 0.58667,0.4224 0.96214,1.00907 0.37547,0.58667 0.4928,1.31415 l -2.76908,1.056 q -0.2112,-0.72747 -0.58667,-1.14987 -0.352,-0.44587 -1.24374,-0.44587 -2.041615,0 -2.557884,2.58135 l -0.422403,2.08854 q -0.117334,0.53974 -0.117334,0.98561 0,0.86827 0.422403,1.40801 0.445869,0.51627 1.431475,0.51627 0.469336,0 0.821333,-0.1408 0.35201,-0.14081 0.61014,-0.39894 0.2816,-0.25814 0.51627,-0.61014 0.23467,-0.352 0.4928,-0.79787 l 2.51095,1.17334 q -0.82134,1.71308 -2.15894,2.58135 -1.31414,0.8448 -3.074155,0.8448 z"
         style="font-style:italic;font-weight:bold;font-family:'IBM Plex Sans';-inkscape-font-specification:'IBM Plex Sans, Bold Italic'"
         id="path43073" />
      <path
         d="m 115.10314,129.28657 q -0.89173,0 -1.4784,-0.46933 -0.58667,-0.46934 -0.58667,-1.33761 0,-0.18774 0.0235,-0.39894 0.0235,-0.2112 0.0469,-0.30506 l 0.0704,-0.35201 h -0.1408 q -0.72748,1.50188 -1.64268,2.32322 -0.91521,0.82133 -2.37015,0.82133 -0.86827,0 -1.50187,-0.30506 -0.61014,-0.32854 -1.00908,-0.89174 -0.39893,-0.58667 -0.58667,-1.36108 -0.18773,-0.79787 -0.18773,-1.71307 0,-1.97121 0.44587,-3.54349 0.46934,-1.59574 1.24374,-2.72215 0.7744,-1.12641 1.80694,-1.73654 1.05601,-0.61014 2.22935,-0.61014 1.29067,0 2.11201,0.704 0.84481,0.70401 0.96214,1.71308 h 0.11733 l 0.42241,-2.13548 h 3.28535 l -1.94775,9.69179 h 1.38455 l -0.51627,2.62828 z m -4.45869,-2.41708 q 0.63361,0 1.14987,-0.32853 0.51627,-0.32854 0.89174,-0.79787 0.39894,-0.46934 0.68054,-1.10294 0.30507,-0.65707 0.44587,-1.33761 l 0.37547,-1.87735 q 0.18773,-0.86827 -0.352,-1.45494 -0.53974,-0.58667 -1.57228,-0.58667 -2.13548,0 -2.69868,2.74562 l -0.32854,1.64267 q -0.0469,0.25814 -0.0939,0.65708 -0.0469,0.39893 -0.0469,0.68053 0,0.82134 0.39894,1.29068 0.4224,0.46933 1.14987,0.46933 z"
         style="font-style:italic;font-weight:bold;font-family:'IBM Plex Sans';-inkscape-font-specification:'IBM Plex Sans, Bold Italic'"
         id="path43075" />
      <path
         d="m 121.67384,116.9665 h 3.28535 l -0.5632,2.86295 h 0.1408 q 0.72747,-1.50187 1.64268,-2.32321 0.9152,-0.82134 2.37014,-0.82134 0.86828,0 1.47841,0.32854 0.63361,0.30506 1.03254,0.89173 0.39894,0.56321 0.58667,1.36108 0.18774,0.7744 0.18774,1.68961 0,1.97121 -0.46934,3.56695 -0.44587,1.57228 -1.22027,2.69868 -0.77441,1.12641 -1.83041,1.73655 -1.03254,0.61013 -2.20588,0.61013 -1.29068,0 -2.13548,-0.704 -0.82134,-0.704 -0.93867,-1.71308 h -0.11734 l -1.36107,6.82884 h -3.28535 z m 3.63736,9.90299 q 2.13548,0 2.69868,-2.74561 l 0.32853,-1.64268 q 0.0469,-0.25813 0.0939,-0.65707 0.0469,-0.39894 0.0469,-0.68054 0,-0.82134 -0.4224,-1.29067 -0.39893,-0.46934 -1.1264,-0.46934 -0.63361,0 -1.14988,0.32854 -0.51627,0.32853 -0.89174,0.79787 -0.39893,0.46934 -0.704,1.12641 -0.2816,0.6336 -0.4224,1.31414 l -0.37547,1.87734 q -0.18774,0.93867 0.352,1.50188 0.53974,0.53973 1.57228,0.53973 z"
         style="font-style:italic;font-weight:bold;font-family:'IBM Plex Sans';-inkscape-font-specification:'IBM Plex Sans, Bold Italic'"
         id="path43077" />
      <path
         d="m 137.30269,115.60543 q -0.86827,0 -1.29067,-0.32854 -0.39894,-0.32853 -0.39894,-0.89174 0,-0.2112 0.0469,-0.46933 0.0469,-0.25814 0.0939,-0.46934 0.0704,-0.30507 0.21121,-0.61013 0.1408,-0.30507 0.39893,-0.53974 0.25814,-0.23467 0.65707,-0.37547 0.39894,-0.16427 0.98561,-0.16427 0.86827,0 1.2672,0.32854 0.42241,0.32853 0.42241,0.89174 0,0.2112 -0.0469,0.46933 -0.0469,0.25814 -0.0939,0.46934 -0.0704,0.30507 -0.21121,0.61014 -0.1408,0.30506 -0.39893,0.53973 -0.25814,0.23467 -0.65707,0.39894 -0.39894,0.1408 -0.98561,0.1408 z m -1.87734,13.68114 q -0.96214,0 -1.54881,-0.51627 -0.5632,-0.51627 -0.5632,-1.36107 0,-0.23467 0.0704,-0.58667 l 1.97121,-9.85606 h 3.28535 l -1.94774,9.69179 h 1.38454 l -0.51627,2.62828 z"
         style="font-style:italic;font-weight:bold;font-family:'IBM Plex Sans';-inkscape-font-specification:'IBM Plex Sans, Bold Italic'"
         id="path43079" />
      <path
         d="m 143.42748,129.28657 q -2.88642,0 -2.88642,-2.32321 0,-0.18773 0.0235,-0.46934 0.0235,-0.2816 0.0704,-0.53973 l 1.26721,-6.35951 h -1.73654 l 0.51627,-2.62828 h 0.8448 q 0.75094,0 1.00907,-0.30507 0.25814,-0.30506 0.37547,-0.93867 l 0.4224,-2.08854 h 3.05069 l -0.65707,3.33228 h 2.46401 l -0.53973,2.62828 h -2.46402 l -1.40801,7.06351 h 2.22935 l -0.51627,2.62828 z"
         style="font-style:italic;font-weight:bold;font-family:'IBM Plex Sans';-inkscape-font-specification:'IBM Plex Sans, Bold Italic'"
         id="path43081" />
      <path
         d="m 157.4371,129.28657 q -0.89174,0 -1.47841,-0.46933 -0.58667,-0.46934 -0.58667,-1.33761 0,-0.18774 0.0235,-0.39894 0.0235,-0.2112 0.0469,-0.30506 l 0.0704,-0.35201 h -0.1408 q -0.72747,1.50188 -1.64268,2.32322 -0.9152,0.82133 -2.37014,0.82133 -0.86828,0 -1.50188,-0.30506 -0.61014,-0.32854 -1.00907,-0.89174 -0.39894,-0.58667 -0.58667,-1.36108 -0.18774,-0.79787 -0.18774,-1.71307 0,-1.97121 0.44587,-3.54349 0.46934,-1.59574 1.24374,-2.72215 0.77441,-1.12641 1.80695,-1.73654 1.056,-0.61014 2.22934,-0.61014 1.29068,0 2.11202,0.704 0.8448,0.70401 0.96213,1.71308 h 0.11734 l 0.4224,-2.13548 h 3.28535 l -1.94774,9.69179 h 1.38454 l -0.51627,2.62828 z m -4.45869,-2.41708 q 0.6336,0 1.14987,-0.32853 0.51627,-0.32854 0.89174,-0.79787 0.39893,-0.46934 0.68053,-1.10294 0.30507,-0.65707 0.44587,-1.33761 l 0.37547,-1.87735 q 0.18774,-0.86827 -0.352,-1.45494 -0.53974,-0.58667 -1.57228,-0.58667 -2.13547,0 -2.69868,2.74562 l -0.32853,1.64267 q -0.0469,0.25814 -0.0939,0.65708 -0.0469,0.39893 -0.0469,0.68053 0,0.82134 0.39893,1.29068 0.4224,0.46933 1.14988,0.46933 z"
         style="font-style:italic;font-weight:bold;font-family:'IBM Plex Sans';-inkscape-font-specification:'IBM Plex Sans, Bold Italic'"
         id="path43083" />
      <path
         d="m 164.07819,129.28657 q -0.96214,0 -1.54881,-0.51627 -0.5632,-0.51627 -0.5632,-1.36107 0,-0.23467 0.0704,-0.58667 l 2.98028,-14.90142 h 3.28535 l -2.95681,14.73715 h 1.45494 l -0.51627,2.62828 z"
         style="font-style:italic;font-weight:bold;font-family:'IBM Plex Sans';-inkscape-font-specification:'IBM Plex Sans, Bold Italic'"
         id="path43085" />
      <path
         d="m 172.54966,115.60543 q -0.86827,0 -1.29067,-0.32854 -0.39894,-0.32853 -0.39894,-0.89174 0,-0.2112 0.0469,-0.46933 0.0469,-0.25814 0.0939,-0.46934 0.0704,-0.30507 0.2112,-0.61013 0.1408,-0.30507 0.39893,-0.53974 0.25814,-0.23467 0.65707,-0.37547 0.39894,-0.16427 0.98561,-0.16427 0.86827,0 1.26721,0.32854 0.4224,0.32853 0.4224,0.89174 0,0.2112 -0.0469,0.46933 -0.0469,0.25814 -0.0939,0.46934 -0.0704,0.30507 -0.2112,0.61014 -0.1408,0.30506 -0.39894,0.53973 -0.25813,0.23467 -0.65707,0.39894 -0.39894,0.1408 -0.98561,0.1408 z m -1.87734,13.68114 q -0.96214,0 -1.54881,-0.51627 -0.5632,-0.51627 -0.5632,-1.36107 0,-0.23467 0.0704,-0.58667 l 1.97121,-9.85606 h 3.28535 l -1.94774,9.69179 h 1.38454 l -0.51627,2.62828 z"
         style="font-style:italic;font-weight:bold;font-family:'IBM Plex Sans';-inkscape-font-specification:'IBM Plex Sans, Bold Italic'"
         id="path43087" />
      <path
         d="m 179.40193,129.56817 q -1.54881,0 -2.83948,-0.53973 -1.29068,-0.53974 -2.11201,-1.61921 l 2.06507,-1.92428 q 0.51627,0.68054 1.19681,1.07947 0.704,0.37547 1.76001,0.37547 1.14987,0 1.61921,-0.39893 0.4928,-0.42241 0.4928,-0.96214 0,-0.352 -0.25813,-0.63361 -0.23467,-0.2816 -0.89174,-0.37546 l -1.24374,-0.16427 q -1.59574,-0.2112 -2.44055,-1.00907 -0.8448,-0.82134 -0.8448,-2.29975 0,-0.86827 0.30507,-1.66614 0.30506,-0.79787 0.93867,-1.40801 0.6336,-0.61014 1.59574,-0.96214 0.96214,-0.37547 2.27628,-0.37547 1.43147,0 2.58135,0.4928 1.17334,0.46934 1.99468,1.45495 l -2.06508,1.92427 q -0.44587,-0.5632 -1.14988,-0.89174 -0.68053,-0.352 -1.50187,-0.352 -0.82134,0 -1.31414,0.37547 -0.46934,0.352 -0.46934,0.91521 0,0.352 0.23467,0.6336 0.25814,0.2816 0.91521,0.37547 l 1.24374,0.16427 q 1.59574,0.2112 2.44054,1.03254 0.84481,0.79787 0.84481,2.25281 0,0.89174 -0.352,1.71308 -0.32854,0.82133 -1.00908,1.45494 -0.68053,0.61013 -1.68961,0.9856 -1.00907,0.352 -2.32321,0.352 z"
         style="font-style:italic;font-weight:bold;font-family:'IBM Plex Sans';-inkscape-font-specification:'IBM Plex Sans, Bold Italic'"
         id="path43089" />
      <path
         d="m 186.39503,129.28657 2.46402,-12.32007 h 3.28535 l -0.56321,2.86295 h 0.14081 q 0.68053,-1.45494 1.6192,-2.29974 0.93868,-0.84481 2.34668,-0.84481 1.38455,0 2.11202,0.84481 0.72747,0.82133 0.75093,2.29974 h 0.11734 q 0.68054,-1.38454 1.64267,-2.25281 0.96214,-0.89174 2.44055,-0.89174 1.36108,0 2.06508,0.84481 0.72747,0.82133 0.72747,2.27628 0,0.53973 -0.0939,1.07947 -0.0704,0.51627 -0.18773,1.056 l -0.93867,4.71683 h 1.24374 l -0.51627,2.62828 h -2.13548 q -0.93867,0 -1.45494,-0.46933 -0.51627,-0.49281 -0.51627,-1.31414 0,-0.21121 0.0235,-0.37547 0.0235,-0.18774 0.0469,-0.2816 l 0.96214,-4.8811 q 0.0704,-0.32853 0.11733,-0.65707 0.0704,-0.32853 0.0704,-0.6336 0,-0.56321 -0.25813,-0.89174 -0.23467,-0.352 -0.77441,-0.352 -0.53973,0 -1.03254,0.32853 -0.4928,0.30507 -0.89174,0.77441 -0.39893,0.46933 -0.704,1.1264 -0.30507,0.65707 -0.4224,1.29068 l -1.26721,6.33603 h -3.28535 l 1.45494,-7.32164 q 0.0704,-0.32853 0.11733,-0.65707 0.0469,-0.32853 0.0469,-0.61014 0,-0.58667 -0.25814,-0.9152 -0.23466,-0.352 -0.8448,-0.352 -0.61014,0 -1.10294,0.32853 -0.46934,0.30507 -0.86827,0.79787 -0.84481,1.03254 -1.12641,2.39362 l -1.26721,6.33603 z"
         style="font-style:italic;font-weight:bold;font-family:'IBM Plex Sans';-inkscape-font-specification:'IBM Plex Sans, Bold Italic'"
         id="path43091" />
    </g>
  </g>
</svg>
