<?xml version="1.0" encoding="UTF-8" standalone="no"?>
<!-- Created with Inkscape (http://www.inkscape.org/) -->

<svg
   width="195.40746mm"
   height="141.50334mm"
   viewBox="0 0 195.40746 141.50334"
   version="1.1"
   id="svg5"
   inkscape:version="1.1.2 (0a00cf5339, 2022-02-04)"
   sodipodi:docname="03_telemetry_indistinguishable.svg"
   xmlns:inkscape="http://www.inkscape.org/namespaces/inkscape"
   xmlns:sodipodi="http://sodipodi.sourceforge.net/DTD/sodipodi-0.dtd"
   xmlns="http://www.w3.org/2000/svg"
   xmlns:svg="http://www.w3.org/2000/svg">
  <sodipodi:namedview
     id="namedview7"
     pagecolor="#ffffff"
     bordercolor="#666666"
     borderopacity="1.0"
     inkscape:pageshadow="2"
     inkscape:pageopacity="0.0"
     inkscape:pagecheckerboard="0"
     inkscape:document-units="mm"
     showgrid="false"
     fit-margin-top="0"
     fit-margin-left="0"
     fit-margin-right="0"
     fit-margin-bottom="0"
     inkscape:zoom="2.0006092"
     inkscape:cx="354.89191"
     inkscape:cy="251.1735"
     inkscape:window-width="2560"
     inkscape:window-height="1369"
     inkscape:window-x="0"
     inkscape:window-y="0"
     inkscape:window-maximized="1"
     inkscape:current-layer="layer1" />
  <defs
     id="defs2" />
  <g
     inkscape:label="Layer 1"
     inkscape:groupmode="layer"
     id="layer1"
     transform="translate(-18.549247,-52.093265)">
    <g
       aria-label="any sufficiently
useful telemetry is
indistinguishable
from
privacy invasion"
       id="text4940"
       style="font-size:23.4668px;line-height:125%;font-family:'Bitstream Vera Sans';-inkscape-font-specification:'Bitstream Vera Sans, Normal';text-align:center;letter-spacing:0px;word-spacing:0px;direction:rtl;text-anchor:middle;stroke-width:1.6px">
      <path
         d="m 44.116239,69.669899 q -0.891738,0 -1.478408,-0.469336 -0.58667,-0.469336 -0.58667,-1.337608 0,-0.187734 0.02347,-0.398935 0.02347,-0.211201 0.04693,-0.305069 l 0.0704,-0.352002 h -0.140801 q -0.727471,1.501876 -1.642676,2.323214 -0.915206,0.821338 -2.370147,0.821338 -0.868272,0 -1.501875,-0.305069 -0.610137,-0.328535 -1.009073,-0.891738 -0.398935,-0.58667 -0.58667,-1.361075 -0.187734,-0.797871 -0.187734,-1.713076 0,-1.971211 0.445869,-3.543487 0.469336,-1.595742 1.24374,-2.722149 0.774405,-1.126406 1.806944,-1.736543 1.056006,-0.610137 2.229346,-0.610137 1.290674,0 2.112012,0.704004 0.844805,0.704004 0.962139,1.713076 h 0.117334 l 0.422402,-2.135478 h 3.285352 l -1.947744,9.691788 h 1.384541 l -0.516269,2.628282 z m -4.458692,-2.41708 q 0.633604,0 1.149873,-0.328536 0.51627,-0.328535 0.891739,-0.797871 0.398935,-0.469336 0.680537,-1.10294 0.305068,-0.65707 0.445869,-1.337607 l 0.375469,-1.877344 q 0.187734,-0.868272 -0.352002,-1.454942 -0.539736,-0.58667 -1.572276,-0.58667 -2.135479,0 -2.698682,2.745616 l -0.328535,1.642676 q -0.04693,0.258135 -0.09387,0.65707 -0.04693,0.398936 -0.04693,0.680537 0,0.821338 0.398936,1.290675 0.422402,0.469336 1.149873,0.469336 z"
         style="font-style:italic;font-weight:bold;font-family:'IBM Plex Sans';-inkscape-font-specification:'IBM Plex Sans, Bold Italic'"
         id="path41158" />
      <path
         d="m 48.22292,69.669899 2.464014,-12.32007 h 3.285352 l -0.563203,2.862949 h 0.140801 q 0.704004,-1.478408 1.666142,-2.299746 0.962139,-0.844805 2.417081,-0.844805 1.431475,0 2.182412,0.844805 0.774405,0.821338 0.774405,2.34668 0,0.445869 -0.0704,0.868272 -0.04693,0.398935 -0.1408,0.868271 l -1.009073,5.045362 h 1.243741 l -0.51627,2.628282 h -2.135479 q -0.938672,0 -1.454941,-0.469336 -0.51627,-0.492803 -0.51627,-1.314141 0,-0.211201 0.02347,-0.375469 0.02347,-0.187734 0.04693,-0.281601 l 0.962139,-4.881095 q 0.0704,-0.328535 0.117334,-0.633603 0.04693,-0.328536 0.04693,-0.680538 0,-0.539736 -0.281602,-0.868271 -0.281601,-0.352002 -0.962139,-0.352002 -0.610137,0 -1.102939,0.328535 -0.492803,0.328535 -0.891739,0.797871 -0.422402,0.492803 -0.727471,1.10294 -0.305068,0.58667 -0.445869,1.290674 l -1.267207,6.336036 z"
         style="font-style:italic;font-weight:bold;font-family:'IBM Plex Sans';-inkscape-font-specification:'IBM Plex Sans, Bold Italic'"
         id="path41160" />
      <path
         d="m 71.079538,57.349829 h 3.496553 l -7.556309,14.314748 q -0.352002,0.680537 -0.750938,1.17334 -0.398936,0.51627 -0.915205,0.844805 -0.51627,0.352002 -1.17334,0.51627 -0.657071,0.164267 -1.525342,0.164267 h -1.830411 l 0.539737,-2.628282 h 2.276279 l 0.657071,-1.361074 -1.736544,-13.024074 h 3.261886 l 0.469336,4.646426 0.375469,4.599493 h 0.1408 l 2.065079,-4.599493 z"
         style="font-style:italic;font-weight:bold;font-family:'IBM Plex Sans';-inkscape-font-specification:'IBM Plex Sans, Bold Italic'"
         id="path41162" />
      <path
         d="m 83.986208,69.951501 q -1.548808,0 -2.839482,-0.539737 -1.290674,-0.539736 -2.112012,-1.619209 l 2.065078,-1.924278 q 0.51627,0.680537 1.196807,1.079473 0.704004,0.375469 1.76001,0.375469 1.149873,0 1.619209,-0.398936 0.492803,-0.422402 0.492803,-0.962139 0,-0.352002 -0.258135,-0.633603 -0.234668,-0.281602 -0.891738,-0.375469 l -1.243741,-0.164268 q -1.595742,-0.211201 -2.440547,-1.009072 -0.844805,-0.821338 -0.844805,-2.299746 0,-0.868272 0.305069,-1.666143 0.305068,-0.797872 0.938672,-1.408008 0.633603,-0.610137 1.595742,-0.962139 0.962139,-0.375469 2.27628,-0.375469 1.431475,0 2.581348,0.492803 1.17334,0.469336 1.994678,1.454941 l -2.065079,1.924278 q -0.445869,-0.563203 -1.149873,-0.891738 -0.680537,-0.352002 -1.501875,-0.352002 -0.821338,0 -1.314141,0.375469 -0.469336,0.352002 -0.469336,0.915205 0,0.352002 0.234668,0.633603 0.258135,0.281602 0.915205,0.375469 l 1.243741,0.164268 q 1.595742,0.211201 2.440547,1.032539 0.844805,0.797871 0.844805,2.252813 0,0.891738 -0.352002,1.713076 -0.328535,0.821338 -1.009073,1.454942 -0.680537,0.610137 -1.689609,0.985606 -1.009073,0.352002 -2.323214,0.352002 z"
         style="font-style:italic;font-weight:bold;font-family:'IBM Plex Sans';-inkscape-font-specification:'IBM Plex Sans, Bold Italic'"
         id="path41164" />
      <path
         d="M 96.611342,57.349829 95.1564,64.67147 q -0.0704,0.328536 -0.117334,0.657071 -0.04693,0.328535 -0.04693,0.58667 0,0.610137 0.258135,0.962139 0.281602,0.328535 0.891739,0.328535 0.610136,0 1.079472,-0.305068 0.492803,-0.328536 0.891739,-0.821339 0.844805,-1.032539 1.126406,-2.393613 l 1.267207,-6.336036 h 3.28535 l -1.94774,9.691788 h 1.38454 l -0.51627,2.628282 h -2.18241 q -0.891741,0 -1.478411,-0.469336 -0.58667,-0.469336 -0.58667,-1.337608 0,-0.187734 0.02347,-0.398935 0.02347,-0.211201 0.04693,-0.305069 l 0.0704,-0.352002 h -0.140801 q -0.680537,1.454942 -1.619209,2.299747 -0.938672,0.844805 -2.34668,0.844805 -1.408008,0 -2.158946,-0.821338 -0.750938,-0.844805 -0.750938,-2.370147 0,-0.469336 0.04693,-0.891739 0.0704,-0.422402 0.164268,-0.891738 l 1.525342,-7.62671 z"
         style="font-style:italic;font-weight:bold;font-family:'IBM Plex Sans';-inkscape-font-specification:'IBM Plex Sans, Bold Italic'"
         id="path41166" />
      <path
         d="m 108.32124,70.843239 q -0.70401,3.52002 -4.50563,3.52002 h -1.78347 l 0.5632,-2.628282 h 2.25281 l 2.34668,-11.756867 h -1.61921 l 0.51627,-2.628281 h 1.61921 l 0.30507,-1.525342 q 0.704,-3.520021 4.50563,-3.520021 h 1.78347 l -0.5632,2.628282 h -2.25281 l -0.46934,2.417081 h 2.39361 l -0.51627,2.628281 h -2.41708 z"
         style="font-style:italic;font-weight:bold;font-family:'IBM Plex Sans';-inkscape-font-specification:'IBM Plex Sans, Bold Italic'"
         id="path41168" />
      <path
         d="m 114.37565,57.349829 h 1.6192 l 0.30507,-1.525342 q 0.37547,-1.736544 1.38454,-2.628282 1.00908,-0.891739 2.74562,-0.891739 h 1.97121 l -0.5632,2.628282 h -2.08855 l -0.46933,2.417081 h 7.39204 l -1.90081,9.691788 h 1.38454 l -0.51627,2.628282 h -2.27628 q -0.89174,0 -1.45494,-0.492803 -0.5632,-0.516269 -0.5632,-1.337607 0,-0.187735 0.0235,-0.352002 0.0235,-0.187735 0.0469,-0.281602 l 1.45494,-7.227775 h -4.10669 l -2.15895,10.865129 q -0.352,1.783477 -1.47841,2.651748 -1.1264,0.868272 -2.83948,0.868272 h -1.97121 l 0.5632,-2.628282 h 2.27628 l 2.32321,-11.756867 h -1.6192 z m 10.95899,-1.384542 q -0.86827,0 -1.26721,-0.352002 -0.37546,-0.375468 -0.37546,-0.938672 0,-0.117334 0.0235,-0.281601 0.0235,-0.164268 0.11734,-0.610137 0.1408,-0.727471 0.65707,-1.196807 0.53973,-0.492803 1.54881,-0.492803 0.86827,0 1.24374,0.375469 0.39893,0.352002 0.39893,0.915205 0,0.117334 -0.0235,0.305069 -0.0235,0.164267 -0.11733,0.58667 -0.18773,0.727471 -0.704,1.220273 -0.49281,0.469336 -1.50188,0.469336 z"
         style="font-style:italic;font-weight:bold;font-family:'IBM Plex Sans';-inkscape-font-specification:'IBM Plex Sans, Bold Italic'"
         id="path41170" />
      <path
         d="m 132.7736,69.951501 q -1.00907,0 -1.90081,-0.281602 -0.86827,-0.305068 -1.52534,-0.938672 -0.65707,-0.65707 -1.03254,-1.666143 -0.37547,-1.009072 -0.37547,-2.440547 0,-1.642676 0.4928,-3.027217 0.49281,-1.384542 1.36108,-2.393614 0.89174,-1.009073 2.08854,-1.572276 1.19681,-0.563203 2.60482,-0.563203 0.86827,0 1.61921,0.234668 0.7744,0.211201 1.3376,0.633604 0.58667,0.422402 0.96214,1.009072 0.37547,0.58667 0.49281,1.314141 l -2.76909,1.056006 q -0.2112,-0.727471 -0.58667,-1.149873 -0.352,-0.44587 -1.24374,-0.44587 -2.04161,0 -2.55788,2.581349 l -0.4224,2.088545 q -0.11733,0.539736 -0.11733,0.985605 0,0.868272 0.4224,1.408009 0.44587,0.516269 1.43147,0.516269 0.46934,0 0.82134,-0.140801 0.352,-0.1408 0.61014,-0.398935 0.2816,-0.258135 0.51627,-0.610137 0.23467,-0.352002 0.4928,-0.797871 l 2.51095,1.17334 q -0.82134,1.713076 -2.15895,2.581348 -1.31414,0.844805 -3.07415,0.844805 z"
         style="font-style:italic;font-weight:bold;font-family:'IBM Plex Sans';-inkscape-font-specification:'IBM Plex Sans, Bold Italic'"
         id="path41172" />
      <path
         d="m 143.54485,55.988754 q -0.86827,0 -1.29067,-0.328535 -0.39894,-0.328535 -0.39894,-0.891738 0,-0.211202 0.0469,-0.469336 0.0469,-0.258135 0.0939,-0.469336 0.0704,-0.305069 0.21121,-0.610137 0.1408,-0.305069 0.39893,-0.539737 0.25814,-0.234668 0.65707,-0.375469 0.39894,-0.164267 0.98561,-0.164267 0.86827,0 1.26721,0.328535 0.4224,0.328535 0.4224,0.891739 0,0.211201 -0.0469,0.469336 -0.0469,0.258134 -0.0939,0.469336 -0.0704,0.305068 -0.2112,0.610136 -0.14081,0.305069 -0.39894,0.539737 -0.25814,0.234668 -0.65707,0.398935 -0.39894,0.140801 -0.98561,0.140801 z m -1.87734,13.681145 q -0.96214,0 -1.54881,-0.51627 -0.5632,-0.516269 -0.5632,-1.361074 0,-0.234668 0.0704,-0.58667 l 1.97121,-9.856056 h 3.28535 l -1.94774,9.691788 h 1.38454 l -0.51627,2.628282 z"
         style="font-style:italic;font-weight:bold;font-family:'IBM Plex Sans';-inkscape-font-specification:'IBM Plex Sans, Bold Italic'"
         id="path41174" />
      <path
         d="m 151.33579,69.951501 q -2.62828,0 -3.91895,-1.408008 -1.29068,-1.431475 -1.29068,-3.895489 0,-1.478409 0.46934,-2.839483 0.46933,-1.384541 1.33761,-2.417081 0.86827,-1.056006 2.11201,-1.689609 1.24374,-0.633604 2.76908,-0.633604 0.704,0 1.47841,0.164268 0.7744,0.164267 1.40801,0.563203 0.65707,0.375469 1.07947,1.032539 0.44587,0.65707 0.44587,1.666143 0,0.962139 -0.44587,1.736543 -0.44587,0.750938 -1.38454,1.314141 -0.93867,0.539736 -2.41708,0.868272 -1.47841,0.305068 -3.54349,0.375468 -0.0469,0.211202 -0.0469,0.328536 0,0.117334 0,0.211201 0,0.891738 0.46933,1.431475 0.49281,0.539736 1.71308,0.539736 0.79787,0 1.47841,-0.328535 0.704,-0.352002 1.52534,-1.384541 l 2.01815,1.595742 q -1.14988,1.525342 -2.41709,2.158946 -1.24374,0.610137 -2.83948,0.610137 z m 1.29068,-10.372326 q -1.05601,0 -1.80695,0.704004 -0.72747,0.680537 -0.93867,1.877344 l -0.0939,0.539736 q 1.31414,-0.0704 2.13548,-0.234668 0.84481,-0.164267 1.31414,-0.398935 0.46934,-0.258135 0.63361,-0.563204 0.16426,-0.305068 0.16426,-0.680537 0,-0.398935 -0.1408,-0.633603 -0.1408,-0.258135 -0.352,-0.375469 -0.2112,-0.140801 -0.46933,-0.187735 -0.23467,-0.04693 -0.44587,-0.04693 z"
         style="font-style:italic;font-weight:bold;font-family:'IBM Plex Sans';-inkscape-font-specification:'IBM Plex Sans, Bold Italic'"
         id="path41176" />
      <path
         d="m 157.81261,69.669899 2.46402,-12.32007 h 3.28535 l -0.5632,2.862949 h 0.1408 q 0.704,-1.478408 1.66614,-2.299746 0.96214,-0.844805 2.41708,-0.844805 1.43148,0 2.18241,0.844805 0.77441,0.821338 0.77441,2.34668 0,0.445869 -0.0704,0.868272 -0.0469,0.398935 -0.1408,0.868271 l -1.00907,5.045362 h 1.24374 l -0.51627,2.628282 h -2.13548 q -0.93867,0 -1.45494,-0.469336 -0.51627,-0.492803 -0.51627,-1.314141 0,-0.211201 0.0235,-0.375469 0.0235,-0.187734 0.0469,-0.281601 l 0.96214,-4.881095 q 0.0704,-0.328535 0.11733,-0.633603 0.0469,-0.328536 0.0469,-0.680538 0,-0.539736 -0.2816,-0.868271 -0.2816,-0.352002 -0.96214,-0.352002 -0.61013,0 -1.10294,0.328535 -0.4928,0.328535 -0.89174,0.797871 -0.4224,0.492803 -0.72747,1.10294 -0.30506,0.58667 -0.44587,1.290674 l -1.2672,6.336036 z"
         style="font-style:italic;font-weight:bold;font-family:'IBM Plex Sans';-inkscape-font-specification:'IBM Plex Sans, Bold Italic'"
         id="path41178" />
      <path
         d="m 175.55349,69.669899 q -2.88641,0 -2.88641,-2.323213 0,-0.187735 0.0235,-0.469336 0.0235,-0.281602 0.0704,-0.539737 l 1.26721,-6.359503 h -1.73654 l 0.51627,-2.628281 h 0.8448 q 0.75094,0 1.00907,-0.305069 0.25814,-0.305068 0.37547,-0.938672 l 0.4224,-2.088545 h 3.05069 l -0.65707,3.332286 h 2.46401 l -0.53973,2.628281 h -2.46402 l -1.40801,7.063507 h 2.22935 l -0.51627,2.628282 z"
         style="font-style:italic;font-weight:bold;font-family:'IBM Plex Sans';-inkscape-font-specification:'IBM Plex Sans, Bold Italic'"
         id="path41180" />
      <path
         d="m 182.45269,69.669899 q -0.96214,0 -1.54881,-0.51627 -0.5632,-0.516269 -0.5632,-1.361074 0,-0.234668 0.0704,-0.58667 l 2.98028,-14.901419 h 3.28535 l -2.95681,14.737151 h 1.45494 l -0.51627,2.628282 z"
         style="font-style:italic;font-weight:bold;font-family:'IBM Plex Sans';-inkscape-font-specification:'IBM Plex Sans, Bold Italic'"
         id="path41182" />
      <path
         d="m 195.64097,57.349829 h 3.49655 l -7.55631,14.314748 q -0.352,0.680537 -0.75093,1.17334 -0.39894,0.51627 -0.91521,0.844805 -0.51627,0.352002 -1.17334,0.51627 -0.65707,0.164267 -1.52534,0.164267 h -1.83041 l 0.53973,-2.628282 h 2.27628 l 0.65707,-1.361074 -1.73654,-13.024074 h 3.26189 l 0.46933,4.646426 0.37547,4.599493 h 0.1408 l 2.06508,-4.599493 z"
         style="font-style:italic;font-weight:bold;font-family:'IBM Plex Sans';-inkscape-font-specification:'IBM Plex Sans, Bold Italic'"
         id="path41184" />
      <path
         d="m 23.571143,87.158166 -1.454942,7.321641 q -0.0704,0.328536 -0.117334,0.657071 -0.04693,0.328535 -0.04693,0.58667 0,0.610137 0.258135,0.962139 0.281602,0.328535 0.891739,0.328535 0.610137,0 1.079473,-0.305069 0.492802,-0.328535 0.891738,-0.821338 0.844805,-1.032539 1.126406,-2.393613 l 1.267208,-6.336036 h 3.285352 l -1.947745,9.691788 h 1.384542 l -0.51627,2.628282 h -2.182413 q -0.891738,0 -1.478408,-0.469336 -0.58667,-0.469336 -0.58667,-1.337608 0,-0.187734 0.02347,-0.398935 0.02347,-0.211202 0.04693,-0.305069 l 0.0704,-0.352002 H 25.42502 q -0.680537,1.454942 -1.619209,2.299747 -0.938672,0.844805 -2.34668,0.844805 -1.408008,0 -2.158946,-0.821339 -0.750938,-0.844804 -0.750938,-2.370146 0,-0.469336 0.04693,-0.891739 0.0704,-0.422402 0.164268,-0.891738 l 1.525342,-7.62671 z"
         style="font-style:italic;font-weight:bold;font-family:'IBM Plex Sans';-inkscape-font-specification:'IBM Plex Sans, Bold Italic'"
         id="path41186" />
      <path
         d="m 36.266654,99.759838 q -1.548809,0 -2.839483,-0.539737 -1.290674,-0.539736 -2.112012,-1.619209 l 2.065078,-1.924278 q 0.51627,0.680537 1.196807,1.079473 0.704004,0.375469 1.76001,0.375469 1.149874,0 1.61921,-0.398936 0.492802,-0.422402 0.492802,-0.962139 0,-0.352002 -0.258134,-0.633603 -0.234668,-0.281602 -0.891739,-0.375469 l -1.24374,-0.164268 q -1.595743,-0.211201 -2.440548,-1.009072 -0.844804,-0.821338 -0.844804,-2.299747 0,-0.868271 0.305068,-1.666142 0.305068,-0.797872 0.938672,-1.408008 0.633604,-0.610137 1.595742,-0.962139 0.962139,-0.375469 2.27628,-0.375469 1.431475,0 2.581348,0.492803 1.17334,0.469336 1.994678,1.454941 l -2.065078,1.924278 q -0.445869,-0.563203 -1.149873,-0.891738 -0.680538,-0.352002 -1.501876,-0.352002 -0.821338,0 -1.31414,0.375468 -0.469337,0.352002 -0.469337,0.915206 0,0.352002 0.234669,0.633603 0.258134,0.281602 0.915205,0.375469 l 1.24374,0.164268 q 1.595743,0.211201 2.440547,1.032539 0.844805,0.797871 0.844805,2.252813 0,0.891738 -0.352002,1.713076 -0.328535,0.821338 -1.009072,1.454942 -0.680537,0.610137 -1.68961,0.985605 -1.009072,0.352003 -2.323213,0.352003 z"
         style="font-style:italic;font-weight:bold;font-family:'IBM Plex Sans';-inkscape-font-specification:'IBM Plex Sans, Bold Italic'"
         id="path41188" />
      <path
         d="m 48.86832,99.759838 q -2.628281,0 -3.918955,-1.408009 -1.290674,-1.431474 -1.290674,-3.895488 0,-1.478409 0.469336,-2.839483 0.469336,-1.384542 1.337607,-2.417081 0.868272,-1.056006 2.112012,-1.689609 1.243741,-0.633604 2.769083,-0.633604 0.704004,0 1.478408,0.164268 0.774405,0.164267 1.408008,0.563203 0.657071,0.375469 1.079473,1.032539 0.445869,0.65707 0.445869,1.666143 0,0.962139 -0.445869,1.736543 -0.445869,0.750938 -1.384541,1.314141 -0.938672,0.539736 -2.417081,0.868272 -1.478408,0.305068 -3.543487,0.375468 -0.04693,0.211202 -0.04693,0.328536 0,0.117334 0,0.211201 0,0.891738 0.469336,1.431475 0.492803,0.539736 1.713076,0.539736 0.797872,0 1.478409,-0.328535 0.704004,-0.352002 1.525342,-1.384541 l 2.018145,1.595742 q -1.149874,1.525342 -2.417081,2.158946 -1.24374,0.610137 -2.839483,0.610137 z m 1.290674,-10.372326 q -1.056006,0 -1.806943,0.704004 -0.727471,0.680537 -0.938672,1.877344 l -0.09387,0.539736 q 1.314141,-0.0704 2.135479,-0.234668 0.844805,-0.164268 1.314141,-0.398936 0.469336,-0.258134 0.633604,-0.563203 0.164267,-0.305068 0.164267,-0.680537 0,-0.398936 -0.1408,-0.633604 -0.140801,-0.258134 -0.352002,-0.375468 -0.211202,-0.140801 -0.469336,-0.187735 -0.234668,-0.04693 -0.44587,-0.04693 z"
         style="font-style:italic;font-weight:bold;font-family:'IBM Plex Sans';-inkscape-font-specification:'IBM Plex Sans, Bold Italic'"
         id="path41190" />
      <path
         d="m 59.264099,100.65158 q -0.704004,3.52002 -4.505626,3.52002 h -1.783477 l 0.563203,-2.62829 h 2.252813 l 2.34668,-11.756863 h -1.619209 l 0.51627,-2.628281 h 1.619209 l 0.305068,-1.525343 q 0.704004,-3.52002 4.505626,-3.52002 h 1.783477 l -0.563203,2.628282 h -2.252813 l -0.469336,2.417081 h 2.393614 l -0.51627,2.628281 h -2.41708 z"
         style="font-style:italic;font-weight:bold;font-family:'IBM Plex Sans';-inkscape-font-specification:'IBM Plex Sans, Bold Italic'"
         id="path41192" />
      <path
         d="m 69.260924,87.158166 -1.454942,7.321641 q -0.0704,0.328536 -0.117334,0.657071 -0.04693,0.328535 -0.04693,0.58667 0,0.610137 0.258134,0.962139 0.281602,0.328535 0.891739,0.328535 0.610137,0 1.079473,-0.305069 0.492803,-0.328535 0.891738,-0.821338 0.844805,-1.032539 1.126407,-2.393613 l 1.267207,-6.336036 h 3.285352 l -1.947745,9.691788 h 1.384542 l -0.51627,2.628282 H 73.17988 q -0.891739,0 -1.478409,-0.469336 -0.58667,-0.469336 -0.58667,-1.337608 0,-0.187734 0.02347,-0.398935 0.02347,-0.211202 0.04693,-0.305069 l 0.0704,-0.352002 h -0.140801 q -0.680537,1.454942 -1.619209,2.299747 -0.938672,0.844805 -2.34668,0.844805 -1.408008,0 -2.158946,-0.821339 -0.750937,-0.844804 -0.750937,-2.370146 0,-0.469336 0.04693,-0.891739 0.0704,-0.422402 0.164268,-0.891738 l 1.525342,-7.62671 z"
         style="font-style:italic;font-weight:bold;font-family:'IBM Plex Sans';-inkscape-font-specification:'IBM Plex Sans, Bold Italic'"
         id="path41194" />
      <path
         d="m 79.820956,99.478236 q -0.962139,0 -1.548809,-0.51627 -0.563203,-0.516269 -0.563203,-1.361074 0,-0.234668 0.0704,-0.58667 l 2.980283,-14.901419 h 3.285352 l -2.956817,14.737151 h 1.454942 l -0.51627,2.628282 z"
         style="font-style:italic;font-weight:bold;font-family:'IBM Plex Sans';-inkscape-font-specification:'IBM Plex Sans, Bold Italic'"
         id="path41196" />
      <path
         d="m 93.361216,99.478236 q -2.886416,0 -2.886416,-2.323213 0,-0.187735 0.02347,-0.469336 0.02347,-0.281602 0.0704,-0.539737 l 1.267207,-6.359503 H 90.099331 L 90.6156,87.158166 h 0.844805 q 0.750938,0 1.009073,-0.305069 0.258134,-0.305068 0.375468,-0.938672 l 0.422403,-2.088545 h 3.050684 l -0.657071,3.332286 h 2.464015 l -0.539737,2.628281 h -2.464014 l -1.408008,7.063507 h 2.229346 l -0.51627,2.628282 z"
         style="font-style:italic;font-weight:bold;font-family:'IBM Plex Sans';-inkscape-font-specification:'IBM Plex Sans, Bold Italic'"
         id="path41198" />
      <path
         d="m 103.17025,99.759838 q -2.62828,0 -3.918956,-1.408009 -1.290674,-1.431474 -1.290674,-3.895488 0,-1.478409 0.469336,-2.839483 0.469336,-1.384542 1.337608,-2.417081 0.868276,-1.056006 2.112016,-1.689609 1.24374,-0.633604 2.76908,-0.633604 0.704,0 1.47841,0.164268 0.7744,0.164267 1.408,0.563203 0.65708,0.375469 1.07948,1.032539 0.44587,0.65707 0.44587,1.666143 0,0.962139 -0.44587,1.736543 -0.44587,0.750938 -1.38454,1.314141 -0.93868,0.539736 -2.41708,0.868272 -1.47841,0.305068 -3.54349,0.375468 -0.0469,0.211202 -0.0469,0.328536 0,0.117334 0,0.211201 0,0.891738 0.46933,1.431475 0.4928,0.539736 1.71308,0.539736 0.79787,0 1.47841,-0.328535 0.704,-0.352002 1.52534,-1.384541 l 2.01814,1.595742 q -1.14987,1.525342 -2.41708,2.158946 -1.24374,0.610137 -2.83948,0.610137 z m 1.29067,-10.372326 q -1.056,0 -1.80694,0.704004 -0.72747,0.680537 -0.93867,1.877344 l -0.0939,0.539736 q 1.31414,-0.0704 2.13548,-0.234668 0.8448,-0.164268 1.31414,-0.398936 0.46934,-0.258134 0.6336,-0.563203 0.16427,-0.305068 0.16427,-0.680537 0,-0.398936 -0.1408,-0.633604 -0.1408,-0.258134 -0.352,-0.375468 -0.2112,-0.140801 -0.46934,-0.187735 -0.23466,-0.04693 -0.44587,-0.04693 z"
         style="font-style:italic;font-weight:bold;font-family:'IBM Plex Sans';-inkscape-font-specification:'IBM Plex Sans, Bold Italic'"
         id="path41200" />
      <path
         d="m 112.18149,99.478236 q -0.96214,0 -1.54881,-0.51627 -0.5632,-0.516269 -0.5632,-1.361074 0,-0.234668 0.0704,-0.58667 l 2.98028,-14.901419 h 3.28535 l -2.95682,14.737151 h 1.45495 l -0.51627,2.628282 z"
         style="font-style:italic;font-weight:bold;font-family:'IBM Plex Sans';-inkscape-font-specification:'IBM Plex Sans, Bold Italic'"
         id="path41202" />
      <path
         d="m 121.84977,99.759838 q -2.62828,0 -3.91896,-1.408009 -1.29067,-1.431474 -1.29067,-3.895488 0,-1.478409 0.46934,-2.839483 0.46933,-1.384542 1.3376,-2.417081 0.86827,-1.056006 2.11202,-1.689609 1.24374,-0.633604 2.76908,-0.633604 0.704,0 1.47841,0.164268 0.7744,0.164267 1.408,0.563203 0.65707,0.375469 1.07948,1.032539 0.44587,0.65707 0.44587,1.666143 0,0.962139 -0.44587,1.736543 -0.44587,0.750938 -1.38454,1.314141 -0.93868,0.539736 -2.41708,0.868272 -1.47841,0.305068 -3.54349,0.375468 -0.0469,0.211202 -0.0469,0.328536 0,0.117334 0,0.211201 0,0.891738 0.46934,1.431475 0.4928,0.539736 1.71308,0.539736 0.79787,0 1.47841,-0.328535 0.704,-0.352002 1.52534,-1.384541 l 2.01814,1.595742 q -1.14987,1.525342 -2.41708,2.158946 -1.24374,0.610137 -2.83948,0.610137 z m 1.29067,-10.372326 q -1.056,0 -1.80694,0.704004 -0.72747,0.680537 -0.93867,1.877344 l -0.0939,0.539736 q 1.31414,-0.0704 2.13548,-0.234668 0.8448,-0.164268 1.31414,-0.398936 0.46934,-0.258134 0.6336,-0.563203 0.16427,-0.305068 0.16427,-0.680537 0,-0.398936 -0.1408,-0.633604 -0.1408,-0.258134 -0.352,-0.375468 -0.2112,-0.140801 -0.46934,-0.187735 -0.23467,-0.04693 -0.44587,-0.04693 z"
         style="font-style:italic;font-weight:bold;font-family:'IBM Plex Sans';-inkscape-font-specification:'IBM Plex Sans, Bold Italic'"
         id="path41204" />
      <path
         d="m 128.32659,99.478236 2.46402,-12.32007 h 3.28535 l -0.5632,2.862949 h 0.1408 q 0.68053,-1.454941 1.61921,-2.299746 0.93867,-0.844805 2.34668,-0.844805 1.38454,0 2.11201,0.844805 0.72747,0.821338 0.75094,2.299746 h 0.11733 q 0.68054,-1.384541 1.64268,-2.252813 0.96213,-0.891738 2.44054,-0.891738 1.36108,0 2.06508,0.844805 0.72747,0.821338 0.72747,2.276279 0,0.539737 -0.0939,1.079473 -0.0704,0.51627 -0.18773,1.056006 l -0.93867,4.716827 h 1.24374 l -0.51627,2.628282 h -2.13548 q -0.93867,0 -1.45494,-0.469336 -0.51627,-0.492803 -0.51627,-1.314141 0,-0.211201 0.0235,-0.375469 0.0235,-0.187734 0.0469,-0.281601 l 0.96214,-4.881095 q 0.0704,-0.328535 0.11733,-0.65707 0.0704,-0.328536 0.0704,-0.633604 0,-0.563203 -0.25813,-0.891738 -0.23467,-0.352002 -0.77441,-0.352002 -0.53973,0 -1.03254,0.328535 -0.4928,0.305068 -0.89173,0.774404 -0.39894,0.469336 -0.70401,1.126407 -0.30507,0.65707 -0.4224,1.290674 l -1.26721,6.336036 h -3.28535 l 1.45494,-7.321642 q 0.0704,-0.328535 0.11734,-0.65707 0.0469,-0.328536 0.0469,-0.610137 0,-0.58667 -0.25814,-0.915205 -0.23466,-0.352002 -0.8448,-0.352002 -0.61014,0 -1.10294,0.328535 -0.46934,0.305068 -0.86827,0.797871 -0.84481,1.032539 -1.12641,2.393614 l -1.26721,6.336036 z"
         style="font-style:italic;font-weight:bold;font-family:'IBM Plex Sans';-inkscape-font-specification:'IBM Plex Sans, Bold Italic'"
         id="path41206" />
      <path
         d="m 154.51551,99.759838 q -2.62828,0 -3.91896,-1.408009 -1.29067,-1.431474 -1.29067,-3.895488 0,-1.478409 0.46934,-2.839483 0.46933,-1.384542 1.3376,-2.417081 0.86828,-1.056006 2.11202,-1.689609 1.24374,-0.633604 2.76908,-0.633604 0.704,0 1.47841,0.164268 0.7744,0.164267 1.40801,0.563203 0.65707,0.375469 1.07947,1.032539 0.44587,0.65707 0.44587,1.666143 0,0.962139 -0.44587,1.736543 -0.44587,0.750938 -1.38454,1.314141 -0.93868,0.539736 -2.41708,0.868272 -1.47841,0.305068 -3.54349,0.375468 -0.0469,0.211202 -0.0469,0.328536 0,0.117334 0,0.211201 0,0.891738 0.46933,1.431475 0.4928,0.539736 1.71308,0.539736 0.79787,0 1.47841,-0.328535 0.704,-0.352002 1.52534,-1.384541 l 2.01814,1.595742 q -1.14987,1.525342 -2.41708,2.158946 -1.24374,0.610137 -2.83948,0.610137 z m 1.29067,-10.372326 q -1.056,0 -1.80694,0.704004 -0.72747,0.680537 -0.93867,1.877344 l -0.0939,0.539736 q 1.31414,-0.0704 2.13548,-0.234668 0.84481,-0.164268 1.31414,-0.398936 0.46934,-0.258134 0.6336,-0.563203 0.16427,-0.305068 0.16427,-0.680537 0,-0.398936 -0.1408,-0.633604 -0.1408,-0.258134 -0.352,-0.375468 -0.2112,-0.140801 -0.46934,-0.187735 -0.23466,-0.04693 -0.44587,-0.04693 z"
         style="font-style:italic;font-weight:bold;font-family:'IBM Plex Sans';-inkscape-font-specification:'IBM Plex Sans, Bold Italic'"
         id="path41208" />
      <path
         d="m 164.93476,99.478236 q -2.88642,0 -2.88642,-2.323213 0,-0.187735 0.0235,-0.469336 0.0235,-0.281602 0.0704,-0.539737 l 1.2672,-6.359503 h -1.73654 l 0.51627,-2.628281 h 0.8448 q 0.75094,0 1.00908,-0.305069 0.25813,-0.305068 0.37547,-0.938672 l 0.4224,-2.088545 h 3.05068 l -0.65707,3.332286 h 2.46402 l -0.53974,2.628281 h -2.46401 l -1.40801,7.063507 h 2.22934 l -0.51627,2.628282 z"
         style="font-style:italic;font-weight:bold;font-family:'IBM Plex Sans';-inkscape-font-specification:'IBM Plex Sans, Bold Italic'"
         id="path41210" />
      <path
         d="m 169.29954,99.478236 2.46401,-12.32007 h 3.28535 l -0.61013,3.07415 h 0.16427 q 0.18773,-0.492802 0.51627,-1.032539 0.352,-0.563203 0.79787,-1.009072 0.46933,-0.445869 1.056,-0.727471 0.61014,-0.305068 1.31414,-0.305068 h 0.58667 l -0.65707,3.191484 h -0.82134 q -1.57227,0 -2.39361,0.58667 -0.82134,0.563204 -1.12641,2.065079 l -1.29067,6.476837 z"
         style="font-style:italic;font-weight:bold;font-family:'IBM Plex Sans';-inkscape-font-specification:'IBM Plex Sans, Bold Italic'"
         id="path41212" />
      <path
         d="m 188.26067,87.158166 h 3.49655 l -7.55631,14.314744 q -0.352,0.68054 -0.75094,1.17334 -0.39893,0.51627 -0.9152,0.84481 -0.51627,0.352 -1.17334,0.51627 -0.65707,0.16427 -1.52534,0.16427 h -1.83041 l 0.53973,-2.62829 h 2.27628 l 0.65707,-1.36107 -1.73654,-13.024074 h 3.26188 l 0.46934,4.646426 0.37547,4.599493 h 0.1408 l 2.06508,-4.599493 z"
         style="font-style:italic;font-weight:bold;font-family:'IBM Plex Sans';-inkscape-font-specification:'IBM Plex Sans, Bold Italic'"
         id="path41214" />
      <path
         d="m 200.9092,85.797091 q -0.86827,0 -1.29067,-0.328535 -0.39894,-0.328535 -0.39894,-0.891739 0,-0.211201 0.0469,-0.469336 0.0469,-0.258134 0.0939,-0.469336 0.0704,-0.305068 0.21121,-0.610136 0.1408,-0.305069 0.39893,-0.539737 0.25814,-0.234668 0.65707,-0.375469 0.39894,-0.164267 0.98561,-0.164267 0.86827,0 1.2672,0.328535 0.42241,0.328535 0.42241,0.891738 0,0.211202 -0.0469,0.469336 -0.0469,0.258135 -0.0939,0.469336 -0.0704,0.305069 -0.2112,0.610137 -0.14081,0.305069 -0.39894,0.539737 -0.25814,0.234668 -0.65707,0.398935 -0.39894,0.140801 -0.98561,0.140801 z m -1.87734,13.681145 q -0.96214,0 -1.54881,-0.51627 -0.5632,-0.516269 -0.5632,-1.361074 0,-0.234668 0.0704,-0.58667 l 1.97121,-9.856056 h 3.28535 l -1.94774,9.691788 h 1.38454 l -0.51627,2.628282 z"
         style="font-style:italic;font-weight:bold;font-family:'IBM Plex Sans';-inkscape-font-specification:'IBM Plex Sans, Bold Italic'"
         id="path41216" />
      <path
         d="m 207.76147,99.759838 q -1.54881,0 -2.83948,-0.539737 -1.29068,-0.539736 -2.11202,-1.619209 l 2.06508,-1.924278 q 0.51627,0.680537 1.19681,1.079473 0.704,0.375469 1.76001,0.375469 1.14987,0 1.61921,-0.398936 0.4928,-0.422402 0.4928,-0.962139 0,-0.352002 -0.25813,-0.633603 -0.23467,-0.281602 -0.89174,-0.375469 l -1.24374,-0.164268 q -1.59574,-0.211201 -2.44055,-1.009072 -0.8448,-0.821338 -0.8448,-2.299747 0,-0.868271 0.30506,-1.666142 0.30507,-0.797872 0.93868,-1.408008 0.6336,-0.610137 1.59574,-0.962139 0.96214,-0.375469 2.27628,-0.375469 1.43147,0 2.58135,0.492803 1.17334,0.469336 1.99468,1.454941 l -2.06508,1.924278 q -0.44587,-0.563203 -1.14988,-0.891738 -0.68053,-0.352002 -1.50187,-0.352002 -0.82134,0 -1.31414,0.375468 -0.46934,0.352002 -0.46934,0.915206 0,0.352002 0.23467,0.633603 0.25813,0.281602 0.9152,0.375469 l 1.24374,0.164268 q 1.59575,0.211201 2.44055,1.032539 0.84481,0.797871 0.84481,2.252813 0,0.891738 -0.352,1.713076 -0.32854,0.821338 -1.00908,1.454942 -0.68053,0.610137 -1.68961,0.985605 -1.00907,0.352003 -2.32321,0.352003 z"
         style="font-style:italic;font-weight:bold;font-family:'IBM Plex Sans';-inkscape-font-specification:'IBM Plex Sans, Bold Italic'"
         id="path41218" />
      <path
         d="m 28.147118,115.60543 q -0.868272,0 -1.290674,-0.32854 -0.398936,-0.32853 -0.398936,-0.89174 0,-0.2112 0.04693,-0.46933 0.04693,-0.25814 0.09387,-0.46934 0.0704,-0.30507 0.211201,-0.61013 0.140801,-0.30507 0.398936,-0.53974 0.258135,-0.23467 0.65707,-0.37547 0.398936,-0.16427 0.985606,-0.16427 0.868272,0 1.267207,0.32854 0.422403,0.32853 0.422403,0.89174 0,0.2112 -0.04693,0.46933 -0.04693,0.25814 -0.09387,0.46934 -0.0704,0.30507 -0.211201,0.61014 -0.140801,0.30506 -0.398936,0.53973 -0.258135,0.23467 -0.65707,0.39894 -0.398936,0.1408 -0.985606,0.1408 z m -1.877344,13.68114 q -0.962139,0 -1.548809,-0.51627 -0.563203,-0.51627 -0.563203,-1.36107 0,-0.23467 0.0704,-0.58667 l 1.971212,-9.85606 h 3.285352 l -1.947745,9.69179 h 1.384541 l -0.516269,2.62828 z"
         style="font-style:italic;font-weight:bold;font-family:'IBM Plex Sans';-inkscape-font-specification:'IBM Plex Sans, Bold Italic'"
         id="path41220" />
      <path
         d="m 30.329489,129.28657 2.464014,-12.32007 h 3.285352 l -0.563203,2.86295 h 0.140801 q 0.704004,-1.47841 1.666143,-2.29974 0.962138,-0.84481 2.41708,-0.84481 1.431475,0 2.182413,0.84481 0.774404,0.82133 0.774404,2.34668 0,0.44586 -0.0704,0.86827 -0.04693,0.39893 -0.140801,0.86827 l -1.009073,5.04536 h 1.243741 l -0.51627,2.62828 h -2.135479 q -0.938672,0 -1.454941,-0.46933 -0.51627,-0.49281 -0.51627,-1.31414 0,-0.21121 0.02347,-0.37547 0.02347,-0.18774 0.04693,-0.2816 l 0.962139,-4.8811 q 0.0704,-0.32853 0.117334,-0.6336 0.04693,-0.32854 0.04693,-0.68054 0,-0.53974 -0.281602,-0.86827 -0.281601,-0.352 -0.962139,-0.352 -0.610136,0 -1.102939,0.32853 -0.492803,0.32854 -0.891739,0.79787 -0.422402,0.49281 -0.72747,1.10294 -0.305069,0.58667 -0.44587,1.29068 l -1.267207,6.33603 z"
         style="font-style:italic;font-weight:bold;font-family:'IBM Plex Sans';-inkscape-font-specification:'IBM Plex Sans, Bold Italic'"
         id="path41222" />
      <path
         d="m 53.890142,129.28657 q -0.891738,0 -1.478408,-0.46933 -0.58667,-0.46934 -0.58667,-1.33761 0,-0.18774 0.02347,-0.39894 0.02347,-0.2112 0.04693,-0.30506 l 0.0704,-0.35201 h -0.1408 q -0.727471,1.50188 -1.642677,2.32322 -0.915205,0.82133 -2.370146,0.82133 -0.868272,0 -1.501876,-0.30506 -0.610136,-0.32854 -1.009072,-0.89174 -0.398936,-0.58667 -0.58667,-1.36108 -0.187735,-0.79787 -0.187735,-1.71307 0,-1.97121 0.44587,-3.54349 0.469336,-1.59574 1.24374,-2.72215 0.774405,-1.12641 1.806944,-1.73654 1.056006,-0.61014 2.229346,-0.61014 1.290674,0 2.112012,0.704 0.844805,0.70401 0.962139,1.71308 h 0.117334 l 1.431475,-7.18084 H 58.1611 l -2.956817,14.73715 h 1.384541 l -0.51627,2.62828 z m -4.458692,-2.41708 q 0.633603,0 1.149873,-0.32853 0.51627,-0.32854 0.891738,-0.79787 0.398936,-0.46934 0.680538,-1.10294 0.305068,-0.65707 0.445869,-1.33761 l 0.375469,-1.87735 q 0.187734,-0.93867 -0.352002,-1.4784 -0.539737,-0.56321 -1.572276,-0.56321 -2.135479,0 -2.698682,2.74562 l -0.328535,1.64267 q -0.04693,0.25814 -0.09387,0.65708 -0.04693,0.39893 -0.04693,0.68053 0,0.82134 0.398936,1.29068 0.422402,0.46933 1.149873,0.46933 z"
         style="font-style:italic;font-weight:bold;font-family:'IBM Plex Sans';-inkscape-font-specification:'IBM Plex Sans, Bold Italic'"
         id="path41224" />
      <path
         d="m 62.408581,115.60543 q -0.868271,0 -1.290674,-0.32854 -0.398935,-0.32853 -0.398935,-0.89174 0,-0.2112 0.04693,-0.46933 0.04693,-0.25814 0.09387,-0.46934 0.0704,-0.30507 0.211202,-0.61013 0.1408,-0.30507 0.398935,-0.53974 0.258135,-0.23467 0.657071,-0.37547 0.398935,-0.16427 0.985605,-0.16427 0.868272,0 1.267207,0.32854 0.422403,0.32853 0.422403,0.89174 0,0.2112 -0.04693,0.46933 -0.04693,0.25814 -0.09387,0.46934 -0.0704,0.30507 -0.211201,0.61014 -0.140801,0.30506 -0.398936,0.53973 -0.258135,0.23467 -0.65707,0.39894 -0.398936,0.1408 -0.985606,0.1408 z m -1.877344,13.68114 q -0.962139,0 -1.548809,-0.51627 -0.563203,-0.51627 -0.563203,-1.36107 0,-0.23467 0.0704,-0.58667 l 1.971212,-9.85606 h 3.285352 l -1.947745,9.69179 h 1.384542 l -0.51627,2.62828 z"
         style="font-style:italic;font-weight:bold;font-family:'IBM Plex Sans';-inkscape-font-specification:'IBM Plex Sans, Bold Italic'"
         id="path41226" />
      <path
         d="m 69.260844,129.56817 q -1.548809,0 -2.839483,-0.53973 -1.290674,-0.53974 -2.112012,-1.61921 l 2.065078,-1.92428 q 0.51627,0.68054 1.196807,1.07947 0.704004,0.37547 1.76001,0.37547 1.149873,0 1.619209,-0.39893 0.492803,-0.42241 0.492803,-0.96214 0,-0.352 -0.258135,-0.63361 -0.234668,-0.2816 -0.891738,-0.37546 l -1.243741,-0.16427 q -1.595742,-0.2112 -2.440547,-1.00907 -0.844805,-0.82134 -0.844805,-2.29975 0,-0.86827 0.305069,-1.66614 0.305068,-0.79787 0.938672,-1.40801 0.633603,-0.61014 1.595742,-0.96214 0.962139,-0.37547 2.27628,-0.37547 1.431475,0 2.581348,0.4928 1.17334,0.46934 1.994678,1.45495 l -2.065078,1.92427 q -0.44587,-0.5632 -1.149874,-0.89174 -0.680537,-0.352 -1.501875,-0.352 -0.821338,0 -1.314141,0.37547 -0.469336,0.352 -0.469336,0.91521 0,0.352 0.234668,0.6336 0.258135,0.2816 0.915205,0.37547 l 1.243741,0.16427 q 1.595742,0.2112 2.440547,1.03254 0.844805,0.79787 0.844805,2.25281 0,0.89174 -0.352002,1.71308 -0.328535,0.82133 -1.009072,1.45494 -0.680538,0.61013 -1.68961,0.9856 -1.009073,0.352 -2.323213,0.352 z"
         style="font-style:italic;font-weight:bold;font-family:'IBM Plex Sans';-inkscape-font-specification:'IBM Plex Sans, Bold Italic'"
         id="path41228" />
      <path
         d="m 79.914743,129.28657 q -2.886416,0 -2.886416,-2.32321 0,-0.18773 0.02347,-0.46934 0.02347,-0.2816 0.0704,-0.53973 l 1.267207,-6.35951 h -1.736543 l 0.51627,-2.62828 h 0.844805 q 0.750937,0 1.009072,-0.30507 0.258135,-0.30506 0.375469,-0.93867 l 0.422402,-2.08854 h 3.050684 l -0.65707,3.33228 h 2.464014 l -0.539736,2.62828 h -2.464015 l -1.408008,7.06351 h 2.229346 l -0.516269,2.62828 z"
         style="font-style:italic;font-weight:bold;font-family:'IBM Plex Sans';-inkscape-font-specification:'IBM Plex Sans, Bold Italic'"
         id="path41230" />
      <path
         d="m 88.691285,115.60543 q -0.868272,0 -1.290674,-0.32854 -0.398936,-0.32853 -0.398936,-0.89174 0,-0.2112 0.04693,-0.46933 0.04693,-0.25814 0.09387,-0.46934 0.0704,-0.30507 0.211201,-0.61013 0.140801,-0.30507 0.398936,-0.53974 0.258134,-0.23467 0.65707,-0.37547 0.398936,-0.16427 0.985606,-0.16427 0.868271,0 1.267207,0.32854 0.422402,0.32853 0.422402,0.89174 0,0.2112 -0.04693,0.46933 -0.04693,0.25814 -0.09387,0.46934 -0.0704,0.30507 -0.211201,0.61014 -0.140801,0.30506 -0.398935,0.53973 -0.258135,0.23467 -0.657071,0.39894 -0.398935,0.1408 -0.985605,0.1408 z m -1.877344,13.68114 q -0.962139,0 -1.548809,-0.51627 -0.563204,-0.51627 -0.563204,-1.36107 0,-0.23467 0.0704,-0.58667 l 1.971211,-9.85606 h 3.285352 l -1.947744,9.69179 h 1.384541 l -0.51627,2.62828 z"
         style="font-style:italic;font-weight:bold;font-family:'IBM Plex Sans';-inkscape-font-specification:'IBM Plex Sans, Bold Italic'"
         id="path41232" />
      <path
         d="m 90.873658,129.28657 2.464014,-12.32007 h 3.285352 l -0.563204,2.86295 h 0.140801 q 0.704004,-1.47841 1.666143,-2.29974 0.962139,-0.84481 2.417076,-0.84481 1.43148,0 2.18242,0.84481 0.7744,0.82133 0.7744,2.34668 0,0.44586 -0.0704,0.86827 -0.0469,0.39893 -0.1408,0.86827 l -1.00907,5.04536 h 1.24374 l -0.51627,2.62828 h -2.13548 q -0.938672,0 -1.454942,-0.46933 -0.516269,-0.49281 -0.516269,-1.31414 0,-0.21121 0.02347,-0.37547 0.02347,-0.18774 0.04693,-0.2816 l 0.962139,-4.8811 q 0.0704,-0.32853 0.117334,-0.6336 0.04693,-0.32854 0.04693,-0.68054 0,-0.53974 -0.281601,-0.86827 -0.281602,-0.352 -0.962139,-0.352 -0.610137,0 -1.10294,0.32853 -0.492802,0.32854 -0.891738,0.79787 -0.422403,0.49281 -0.727471,1.10294 -0.305068,0.58667 -0.445869,1.29068 l -1.267207,6.33603 z"
         style="font-style:italic;font-weight:bold;font-family:'IBM Plex Sans';-inkscape-font-specification:'IBM Plex Sans, Bold Italic'"
         id="path41234" />
      <path
         d="m 116.00658,129.80284 q 0,0.79787 -0.32853,1.59574 -0.30507,0.79788 -1.12641,1.43148 -0.79787,0.6336 -2.18241,1.03254 -1.36107,0.39893 -3.49655,0.39893 -1.54881,0 -2.55788,-0.2112 -1.00908,-0.2112 -1.61921,-0.58667 -0.58667,-0.37547 -0.82134,-0.86827 -0.23467,-0.4928 -0.23467,-1.056 0,-0.56321 0.2112,-0.98561 0.2112,-0.4224 0.5632,-0.72747 0.37547,-0.30507 0.86828,-0.51627 0.4928,-0.18773 1.056,-0.32854 v -0.16426 q -0.68053,-0.1408 -1.03254,-0.61014 -0.352,-0.4928 -0.352,-1.17334 0,-0.51627 0.2112,-0.91521 0.23467,-0.4224 0.61014,-0.72747 0.37547,-0.32853 0.86827,-0.51627 0.4928,-0.2112 1.00907,-0.32853 l 0.0235,-0.16427 q -0.86827,-0.44587 -1.33761,-1.22027 -0.44587,-0.77441 -0.44587,-1.85388 0,-0.8448 0.32854,-1.66614 0.32853,-0.84481 1.03254,-1.50188 0.704,-0.65707 1.78347,-1.056 1.07948,-0.39894 2.60482,-0.39894 0.61014,0 1.12641,0.0939 0.51627,0.0704 0.9856,0.2112 l 0.11734,-0.53974 q 0.18773,-0.96214 0.704,-1.38454 0.51627,-0.44587 1.36107,-0.44587 h 1.85388 l -0.51627,2.53442 h -2.51095 l -0.0704,0.30507 q 0.72747,0.46933 1.10294,1.1968 0.39894,0.70401 0.39894,1.68961 0,0.84481 -0.32854,1.68961 -0.32853,0.82134 -1.03254,1.47841 -0.704,0.65707 -1.80694,1.05601 -1.07947,0.39893 -2.58135,0.39893 -1.10294,0 -1.90081,-0.23467 -0.39893,0.16427 -0.65707,0.46934 -0.23467,0.30507 -0.23467,0.68054 0,0.7744 1.24374,0.7744 h 3.02722 q 4.08322,0 4.08322,3.14455 z m -3.28535,0.70401 q 0,-0.49281 -0.352,-0.75094 -0.352,-0.25814 -1.31414,-0.25814 h -4.05976 q -0.352,0.25814 -0.4928,0.61014 -0.1408,0.37547 -0.1408,0.68054 0,0.5632 0.46934,0.89174 0.46933,0.32853 1.64267,0.32853 h 1.52534 q 1.54881,0 2.13548,-0.44587 0.58667,-0.44587 0.58667,-1.056 z m -1.99468,-7.79098 q 0.98561,0 1.52535,-0.4224 0.53973,-0.44587 0.704,-1.26721 0.0704,-0.352 0.0704,-0.51627 0.0235,-0.16427 0.0235,-0.25814 0,-1.31414 -1.71308,-1.31414 -0.9856,0 -1.52534,0.44587 -0.53974,0.42241 -0.70401,1.24374 -0.0704,0.35201 -0.0939,0.51627 0,0.16427 0,0.25814 0,1.31414 1.71307,1.31414 z"
         style="font-style:italic;font-weight:bold;font-family:'IBM Plex Sans';-inkscape-font-specification:'IBM Plex Sans, Bold Italic'"
         id="path41236" />
      <path
         d="m 122.76498,116.9665 -1.45494,7.32164 q -0.0704,0.32854 -0.11733,0.65707 -0.0469,0.32854 -0.0469,0.58667 0,0.61014 0.25814,0.96214 0.2816,0.32854 0.89174,0.32854 0.61013,0 1.07947,-0.30507 0.4928,-0.32853 0.89174,-0.82134 0.8448,-1.03254 1.1264,-2.39361 l 1.26721,-6.33604 h 3.28535 l -1.94774,9.69179 h 1.38454 l -0.51627,2.62828 h -2.18241 q -0.89174,0 -1.47841,-0.46933 -0.58667,-0.46934 -0.58667,-1.33761 0,-0.18774 0.0235,-0.39894 0.0235,-0.2112 0.0469,-0.30506 l 0.0704,-0.35201 h -0.1408 q -0.68054,1.45494 -1.61921,2.29975 -0.93867,0.8448 -2.34668,0.8448 -1.40801,0 -2.15895,-0.82133 -0.75093,-0.84481 -0.75093,-2.37015 0,-0.46934 0.0469,-0.89174 0.0704,-0.4224 0.16427,-0.89174 l 1.52534,-7.62671 z"
         style="font-style:italic;font-weight:bold;font-family:'IBM Plex Sans';-inkscape-font-specification:'IBM Plex Sans, Bold Italic'"
         id="path41238" />
      <path
         d="m 135.20235,115.60543 q -0.86827,0 -1.29067,-0.32854 -0.39893,-0.32853 -0.39893,-0.89174 0,-0.2112 0.0469,-0.46933 0.0469,-0.25814 0.0939,-0.46934 0.0704,-0.30507 0.2112,-0.61013 0.1408,-0.30507 0.39893,-0.53974 0.25814,-0.23467 0.65707,-0.37547 0.39894,-0.16427 0.98561,-0.16427 0.86827,0 1.26721,0.32854 0.4224,0.32853 0.4224,0.89174 0,0.2112 -0.0469,0.46933 -0.0469,0.25814 -0.0939,0.46934 -0.0704,0.30507 -0.2112,0.61014 -0.1408,0.30506 -0.39894,0.53973 -0.25813,0.23467 -0.65707,0.39894 -0.39894,0.1408 -0.98561,0.1408 z m -1.87734,13.68114 q -0.96214,0 -1.54881,-0.51627 -0.5632,-0.51627 -0.5632,-1.36107 0,-0.23467 0.0704,-0.58667 l 1.97121,-9.85606 h 3.28535 l -1.94774,9.69179 h 1.38454 l -0.51627,2.62828 z"
         style="font-style:italic;font-weight:bold;font-family:'IBM Plex Sans';-inkscape-font-specification:'IBM Plex Sans, Bold Italic'"
         id="path41240" />
      <path
         d="m 142.05462,129.56817 q -1.54881,0 -2.83948,-0.53973 -1.29068,-0.53974 -2.11201,-1.61921 l 2.06507,-1.92428 q 0.51627,0.68054 1.19681,1.07947 0.70401,0.37547 1.76001,0.37547 1.14987,0 1.61921,-0.39893 0.4928,-0.42241 0.4928,-0.96214 0,-0.352 -0.25813,-0.63361 -0.23467,-0.2816 -0.89174,-0.37546 l -1.24374,-0.16427 q -1.59574,-0.2112 -2.44055,-1.00907 -0.8448,-0.82134 -0.8448,-2.29975 0,-0.86827 0.30507,-1.66614 0.30506,-0.79787 0.93867,-1.40801 0.6336,-0.61014 1.59574,-0.96214 0.96214,-0.37547 2.27628,-0.37547 1.43148,0 2.58135,0.4928 1.17334,0.46934 1.99468,1.45495 l -2.06508,1.92427 q -0.44587,-0.5632 -1.14988,-0.89174 -0.68053,-0.352 -1.50187,-0.352 -0.82134,0 -1.31414,0.37547 -0.46934,0.352 -0.46934,0.91521 0,0.352 0.23467,0.6336 0.25814,0.2816 0.91521,0.37547 l 1.24374,0.16427 q 1.59574,0.2112 2.44054,1.03254 0.84481,0.79787 0.84481,2.25281 0,0.89174 -0.352,1.71308 -0.32854,0.82133 -1.00908,1.45494 -0.68053,0.61013 -1.68961,0.9856 -1.00907,0.352 -2.32321,0.352 z"
         style="font-style:italic;font-weight:bold;font-family:'IBM Plex Sans';-inkscape-font-specification:'IBM Plex Sans, Bold Italic'"
         id="path41242" />
      <path
         d="m 152.52081,111.92114 h 3.28535 l -1.57227,7.90831 h 0.1408 q 0.704,-1.47841 1.66614,-2.29974 0.96214,-0.84481 2.41708,-0.84481 1.43147,0 2.18241,0.84481 0.77441,0.82133 0.77441,2.34668 0,0.44586 -0.0704,0.86827 -0.0469,0.39893 -0.14081,0.86827 l -1.00907,5.04536 h 1.24374 l -0.51627,2.62828 h -2.13548 q -0.93867,0 -1.45494,-0.46933 -0.51627,-0.49281 -0.51627,-1.31414 0,-0.21121 0.0235,-0.37547 0.0235,-0.18774 0.0469,-0.2816 l 0.96214,-4.8811 q 0.0704,-0.32853 0.11734,-0.6336 0.0469,-0.32854 0.0469,-0.68054 0,-0.53974 -0.2816,-0.86827 -0.2816,-0.352 -0.96214,-0.352 -0.61014,0 -1.10294,0.32853 -0.4928,0.32854 -0.89174,0.79787 -0.4224,0.49281 -0.72747,1.10294 -0.30507,0.58667 -0.44587,1.29068 l -1.26721,6.33603 h -3.28535 z"
         style="font-style:italic;font-weight:bold;font-family:'IBM Plex Sans';-inkscape-font-specification:'IBM Plex Sans, Bold Italic'"
         id="path41244" />
      <path
         d="m 172.60837,129.28657 q -0.89174,0 -1.47841,-0.46933 -0.58667,-0.46934 -0.58667,-1.33761 0,-0.18774 0.0235,-0.39894 0.0235,-0.2112 0.0469,-0.30506 l 0.0704,-0.35201 h -0.14081 q -0.72747,1.50188 -1.64267,2.32322 -0.91521,0.82133 -2.37015,0.82133 -0.86827,0 -1.50187,-0.30506 -0.61014,-0.32854 -1.00908,-0.89174 -0.39893,-0.58667 -0.58667,-1.36108 -0.18773,-0.79787 -0.18773,-1.71307 0,-1.97121 0.44587,-3.54349 0.46933,-1.59574 1.24374,-2.72215 0.7744,-1.12641 1.80694,-1.73654 1.05601,-0.61014 2.22935,-0.61014 1.29067,0 2.11201,0.704 0.84481,0.70401 0.96214,1.71308 h 0.11733 l 0.42241,-2.13548 h 3.28535 l -1.94775,9.69179 h 1.38455 l -0.51627,2.62828 z m -4.45869,-2.41708 q 0.6336,0 1.14987,-0.32853 0.51627,-0.32854 0.89174,-0.79787 0.39894,-0.46934 0.68054,-1.10294 0.30507,-0.65707 0.44587,-1.33761 l 0.37547,-1.87735 q 0.18773,-0.86827 -0.352,-1.45494 -0.53974,-0.58667 -1.57228,-0.58667 -2.13548,0 -2.69868,2.74562 l -0.32854,1.64267 q -0.0469,0.25814 -0.0939,0.65708 -0.0469,0.39893 -0.0469,0.68053 0,0.82134 0.39894,1.29068 0.4224,0.46933 1.14987,0.46933 z"
         style="font-style:italic;font-weight:bold;font-family:'IBM Plex Sans';-inkscape-font-specification:'IBM Plex Sans, Bold Italic'"
         id="path41246" />
      <path
         d="m 180.07078,111.92114 h 3.28535 l -1.57227,7.90831 h 0.1408 q 0.72747,-1.50187 1.64267,-2.32321 0.91521,-0.82134 2.37015,-0.82134 0.86827,0 1.47841,0.32854 0.6336,0.30506 1.03254,0.89173 0.39893,0.56321 0.58667,1.36108 0.18773,0.7744 0.18773,1.68961 0,1.97121 -0.46933,3.56695 -0.44587,1.57228 -1.22028,2.69868 -0.7744,1.12641 -1.83041,1.73655 -1.03254,0.61013 -2.20588,0.61013 -1.29067,0 -2.13547,-0.704 -0.82134,-0.704 -0.93868,-1.71308 h -0.11733 l -0.4224,2.13548 h -3.28536 z m 2.62828,14.94835 q 2.13548,0 2.69868,-2.74561 l 0.32854,-1.64268 q 0.0469,-0.25813 0.0939,-0.65707 0.0469,-0.39894 0.0469,-0.68054 0,-0.82134 -0.4224,-1.29067 -0.39894,-0.46934 -1.12641,-0.46934 -0.6336,0 -1.14987,0.32854 -0.51627,0.32853 -0.89174,0.79787 -0.39894,0.46934 -0.704,1.12641 -0.28161,0.6336 -0.42241,1.31414 l -0.37546,1.87734 q -0.18774,0.93867 0.352,1.50188 0.53973,0.53973 1.57227,0.53973 z"
         style="font-style:italic;font-weight:bold;font-family:'IBM Plex Sans';-inkscape-font-specification:'IBM Plex Sans, Bold Italic'"
         id="path41248" />
      <path
         d="m 192.81322,129.28657 q -0.96214,0 -1.54881,-0.51627 -0.56321,-0.51627 -0.56321,-1.36107 0,-0.23467 0.0704,-0.58667 l 2.98029,-14.90142 h 3.28535 l -2.95682,14.73715 h 1.45494 l -0.51626,2.62828 z"
         style="font-style:italic;font-weight:bold;font-family:'IBM Plex Sans';-inkscape-font-specification:'IBM Plex Sans, Bold Italic'"
         id="path41250" />
      <path
         d="m 202.4815,129.56817 q -2.62828,0 -3.91896,-1.408 -1.29067,-1.43148 -1.29067,-3.89549 0,-1.47841 0.46933,-2.83949 0.46934,-1.38454 1.33761,-2.41708 0.86827,-1.056 2.11201,-1.68961 1.24374,-0.6336 2.76909,-0.6336 0.704,0 1.4784,0.16427 0.77441,0.16427 1.40801,0.5632 0.65707,0.37547 1.07948,1.03254 0.44587,0.65707 0.44587,1.66614 0,0.96214 -0.44587,1.73655 -0.44587,0.75093 -1.38455,1.31414 -0.93867,0.53973 -2.41708,0.86827 -1.4784,0.30507 -3.54348,0.37547 -0.0469,0.2112 -0.0469,0.32853 0,0.11734 0,0.2112 0,0.89174 0.46934,1.43148 0.4928,0.53974 1.71308,0.53974 0.79787,0 1.4784,-0.32854 0.70401,-0.352 1.52535,-1.38454 l 2.01814,1.59574 q -1.14987,1.52534 -2.41708,2.15895 -1.24374,0.61013 -2.83948,0.61013 z m 1.29067,-10.37232 q -1.056,0 -1.80694,0.704 -0.72747,0.68054 -0.93867,1.87735 l -0.0939,0.53973 q 1.31414,-0.0704 2.13548,-0.23467 0.8448,-0.16426 1.31414,-0.39893 0.46933,-0.25814 0.6336,-0.5632 0.16427,-0.30507 0.16427,-0.68054 0,-0.39894 -0.1408,-0.6336 -0.1408,-0.25814 -0.352,-0.37547 -0.2112,-0.1408 -0.46934,-0.18774 -0.23467,-0.0469 -0.44587,-0.0469 z"
         style="font-style:italic;font-weight:bold;font-family:'IBM Plex Sans';-inkscape-font-specification:'IBM Plex Sans, Bold Italic'"
         id="path41252" />
      <path
         d="m 94.909969,160.26825 q -0.704004,3.52002 -4.505626,3.52002 h -1.783477 l 0.563203,-2.62828 h 2.252813 l 2.34668,-11.75687 h -1.619209 l 0.51627,-2.62828 h 1.619209 L 94.6049,145.2495 q 0.704004,-3.52002 4.505626,-3.52002 H 100.894 l -0.5632,2.62828 h -2.252813 l -0.469336,2.41708 h 2.393609 l -0.516265,2.62828 h -2.417081 z"
         style="font-style:italic;font-weight:bold;font-family:'IBM Plex Sans';-inkscape-font-specification:'IBM Plex Sans, Bold Italic'"
         id="path41254" />
      <path
         d="m 99.274764,159.09491 2.464016,-12.32007 h 3.28535 l -0.61014,3.07415 h 0.16427 q 0.18773,-0.4928 0.51627,-1.03254 0.352,-0.5632 0.79787,-1.00907 0.46934,-0.44587 1.05601,-0.72747 0.61013,-0.30507 1.31414,-0.30507 h 0.58667 l -0.65707,3.19148 h -0.82134 q -1.57228,0 -2.39361,0.58667 -0.82134,0.56321 -1.12641,2.06508 l -1.29067,6.47684 z"
         style="font-style:italic;font-weight:bold;font-family:'IBM Plex Sans';-inkscape-font-specification:'IBM Plex Sans, Bold Italic'"
         id="path41256" />
      <path
         d="m 113.7068,159.37651 q -2.27628,0 -3.59042,-1.33761 -1.31414,-1.36107 -1.31414,-3.80162 0,-1.66614 0.46933,-3.07415 0.49281,-1.43147 1.33761,-2.46401 0.84481,-1.03254 1.99468,-1.61921 1.17334,-0.58667 2.55788,-0.58667 2.27628,0 3.59042,1.36107 1.31414,1.33761 1.31414,3.77816 0,1.66614 -0.4928,3.09761 -0.46934,1.40801 -1.31414,2.44055 -0.84481,1.03254 -2.01815,1.61921 -1.17334,0.58667 -2.53441,0.58667 z m 0.11733,-2.65175 q 1.92428,0 2.46402,-2.69868 l 0.44587,-2.20588 q 0.0235,-0.11733 0.0469,-0.30507 0.0235,-0.18773 0.0235,-0.4224 0,-0.89174 -0.44587,-1.40801 -0.44587,-0.53973 -1.31414,-0.53973 -1.92428,0 -2.46402,2.69868 l -0.44587,2.20588 q -0.0235,0.11733 -0.0469,0.30507 -0.0235,0.18773 -0.0235,0.4224 0,0.89174 0.44587,1.43147 0.44587,0.51627 1.31414,0.51627 z"
         style="font-style:italic;font-weight:bold;font-family:'IBM Plex Sans';-inkscape-font-specification:'IBM Plex Sans, Bold Italic'"
         id="path41258" />
      <path
         d="m 121.1223,159.09491 2.46402,-12.32007 h 3.28535 l -0.5632,2.86295 h 0.1408 q 0.68053,-1.45494 1.61921,-2.29975 0.93867,-0.8448 2.34668,-0.8448 1.38454,0 2.11201,0.8448 0.72747,0.82134 0.75094,2.29975 h 0.11733 q 0.68054,-1.38454 1.64268,-2.25281 0.96214,-0.89174 2.44054,-0.89174 1.36108,0 2.06508,0.8448 0.72747,0.82134 0.72747,2.27628 0,0.53974 -0.0939,1.07948 -0.0704,0.51626 -0.18774,1.056 l -0.93867,4.71683 h 1.24374 l -0.51627,2.62828 h -2.13548 q -0.93867,0 -1.45494,-0.46934 -0.51627,-0.4928 -0.51627,-1.31414 0,-0.2112 0.0235,-0.37547 0.0235,-0.18773 0.0469,-0.2816 l 0.96214,-4.88109 q 0.0704,-0.32854 0.11733,-0.65707 0.0704,-0.32854 0.0704,-0.63361 0,-0.5632 -0.25813,-0.89173 -0.23467,-0.35201 -0.77441,-0.35201 -0.53973,0 -1.03253,0.32854 -0.49281,0.30507 -0.89174,0.7744 -0.39894,0.46934 -0.70401,1.12641 -0.30507,0.65707 -0.4224,1.29067 l -1.26721,6.33604 h -3.28535 l 1.45494,-7.32164 q 0.0704,-0.32854 0.11734,-0.65707 0.0469,-0.32854 0.0469,-0.61014 0,-0.58667 -0.25813,-0.9152 -0.23467,-0.35201 -0.84481,-0.35201 -0.61014,0 -1.10294,0.32854 -0.46934,0.30507 -0.86827,0.79787 -0.84481,1.03254 -1.12641,2.39361 l -1.2672,6.33604 z"
         style="font-style:italic;font-weight:bold;font-family:'IBM Plex Sans';-inkscape-font-specification:'IBM Plex Sans, Bold Italic'"
         id="path41260" />
      <path
         d="m 31.256444,176.58318 h 3.285352 l -0.563203,2.86295 h 0.140801 q 0.72747,-1.50188 1.642676,-2.32322 0.915205,-0.82134 2.370146,-0.82134 0.868272,0 1.478409,0.32854 0.633604,0.30507 1.032539,0.89174 0.398936,0.5632 0.58667,1.36107 0.187735,0.77441 0.187735,1.68961 0,1.97121 -0.469336,3.56696 -0.44587,1.57227 -1.220274,2.69868 -0.774404,1.1264 -1.830411,1.73654 -1.032539,0.61014 -2.205879,0.61014 -1.290674,0 -2.135479,-0.70401 -0.821338,-0.704 -0.938672,-1.71307 h -0.117334 l -1.361074,6.82884 h -3.285352 z m 3.637354,9.90299 q 2.135479,0 2.698682,-2.74562 l 0.328535,-1.64268 q 0.04693,-0.25813 0.09387,-0.65707 0.04693,-0.39893 0.04693,-0.68053 0,-0.82134 -0.422402,-1.29068 -0.398936,-0.46933 -1.126407,-0.46933 -0.633603,0 -1.149873,0.32853 -0.51627,0.32854 -0.891738,0.79787 -0.398936,0.46934 -0.704004,1.12641 -0.281602,0.6336 -0.422403,1.31414 l -0.375469,1.87734 q -0.187734,0.93868 0.352002,1.50188 0.539737,0.53974 1.572276,0.53974 z"
         style="font-style:italic;font-weight:bold;font-family:'IBM Plex Sans';-inkscape-font-specification:'IBM Plex Sans, Bold Italic'"
         id="path41262" />
      <path
         d="m 42.473534,188.90325 2.464015,-12.32007 h 3.285352 l -0.610137,3.07415 h 0.164267 q 0.187735,-0.49281 0.51627,-1.03254 0.352002,-0.56321 0.797871,-1.00907 0.469336,-0.44587 1.056006,-0.72748 0.610137,-0.30506 1.314141,-0.30506 h 0.58667 l -0.65707,3.19148 h -0.821338 q -1.572276,0 -2.393614,0.58667 -0.821338,0.5632 -1.126406,2.06508 l -1.290674,6.47684 z"
         style="font-style:italic;font-weight:bold;font-family:'IBM Plex Sans';-inkscape-font-specification:'IBM Plex Sans, Bold Italic'"
         id="path41264" />
      <path
         d="m 56.13119,175.2221 q -0.868271,0 -1.290674,-0.32853 -0.398935,-0.32854 -0.398935,-0.89174 0,-0.2112 0.04693,-0.46934 0.04693,-0.25813 0.09387,-0.46933 0.0704,-0.30507 0.211202,-0.61014 0.1408,-0.30507 0.398935,-0.53974 0.258135,-0.23467 0.657071,-0.37547 0.398935,-0.16426 0.985605,-0.16426 0.868272,0 1.267208,0.32853 0.422402,0.32854 0.422402,0.89174 0,0.2112 -0.04693,0.46934 -0.04693,0.25813 -0.09387,0.46933 -0.0704,0.30507 -0.211201,0.61014 -0.140801,0.30507 -0.398936,0.53974 -0.258134,0.23466 -0.65707,0.39893 -0.398936,0.1408 -0.985606,0.1408 z m -1.877344,13.68115 q -0.962139,0 -1.548809,-0.51627 -0.563203,-0.51627 -0.563203,-1.36108 0,-0.23467 0.0704,-0.58667 l 1.971211,-9.85605 h 3.285352 l -1.947745,9.69178 h 1.384542 l -0.51627,2.62829 z"
         style="font-style:italic;font-weight:bold;font-family:'IBM Plex Sans';-inkscape-font-specification:'IBM Plex Sans, Bold Italic'"
         id="path41266" />
      <path
         d="m 60.589843,188.90325 -1.525342,-12.32007 h 3.261885 l 0.398936,4.64642 0.352002,4.7403 h 0.164267 l 2.065079,-4.7403 2.182412,-4.64642 h 3.496554 l -6.406437,12.32007 z"
         style="font-style:italic;font-weight:bold;font-family:'IBM Plex Sans';-inkscape-font-specification:'IBM Plex Sans, Bold Italic'"
         id="path41268" />
      <path
         d="m 79.85606,188.90325 q -0.891738,0 -1.478408,-0.46934 -0.58667,-0.46934 -0.58667,-1.33761 0,-0.18773 0.02347,-0.39893 0.02347,-0.2112 0.04693,-0.30507 l 0.0704,-0.352 h -0.1408 q -0.727471,1.50187 -1.642676,2.32321 -0.915206,0.82134 -2.370147,0.82134 -0.868272,0 -1.501876,-0.30507 -0.610136,-0.32854 -1.009072,-0.89174 -0.398936,-0.58667 -0.58667,-1.36107 -0.187734,-0.79787 -0.187734,-1.71308 0,-1.97121 0.445869,-3.54349 0.469336,-1.59574 1.24374,-2.72215 0.774405,-1.1264 1.806944,-1.73654 1.056006,-0.61014 2.229346,-0.61014 1.290674,0 2.112012,0.70401 0.844805,0.704 0.962139,1.71308 h 0.117334 l 0.422402,-2.13548 h 3.285352 l -1.947744,9.69178 h 1.384541 l -0.516269,2.62829 z m -4.458692,-2.41708 q 0.633604,0 1.149873,-0.32854 0.51627,-0.32853 0.891739,-0.79787 0.398935,-0.46934 0.680537,-1.10294 0.305068,-0.65707 0.445869,-1.33761 l 0.375469,-1.87734 q 0.187734,-0.86827 -0.352002,-1.45494 -0.539737,-0.58667 -1.572276,-0.58667 -2.135479,0 -2.698682,2.74561 l -0.328535,1.64268 q -0.04693,0.25813 -0.09387,0.65707 -0.04693,0.39893 -0.04693,0.68054 0,0.82133 0.398936,1.29067 0.422402,0.46934 1.149873,0.46934 z"
         style="font-style:italic;font-weight:bold;font-family:'IBM Plex Sans';-inkscape-font-specification:'IBM Plex Sans, Bold Italic'"
         id="path41270" />
      <path
         d="m 89.195837,189.18485 q -1.009072,0 -1.900811,-0.2816 -0.868271,-0.30507 -1.525342,-0.93868 -0.65707,-0.65707 -1.032539,-1.66614 -0.375469,-1.00907 -0.375469,-2.44055 0,-1.64267 0.492803,-3.02721 0.492803,-1.38454 1.361075,-2.39362 0.891738,-1.00907 2.088545,-1.57227 1.196807,-0.56321 2.604815,-0.56321 0.868271,0 1.619209,0.23467 0.774404,0.2112 1.337608,0.63361 0.58667,0.4224 0.962138,1.00907 0.375469,0.58667 0.492803,1.31414 l -2.769082,1.05601 q -0.211201,-0.72748 -0.58667,-1.14988 -0.352002,-0.44587 -1.243741,-0.44587 -2.041611,0 -2.557881,2.58135 l -0.422402,2.08855 q -0.117334,0.53973 -0.117334,0.9856 0,0.86827 0.422402,1.40801 0.445869,0.51627 1.431475,0.51627 0.469336,0 0.821338,-0.1408 0.352002,-0.1408 0.610137,-0.39894 0.281601,-0.25813 0.516269,-0.61013 0.234668,-0.35201 0.492803,-0.79787 l 2.510948,1.17334 q -0.821338,1.71307 -2.158946,2.58134 -1.314141,0.84481 -3.074151,0.84481 z"
         style="font-style:italic;font-weight:bold;font-family:'IBM Plex Sans';-inkscape-font-specification:'IBM Plex Sans, Bold Italic'"
         id="path41272" />
      <path
         d="m 105.03588,176.58318 h 3.49655 l -7.55631,14.31474 q -0.352,0.68054 -0.75094,1.17334 -0.398932,0.51627 -0.915202,0.84481 -0.51627,0.352 -1.17334,0.51627 -0.65707,0.16427 -1.525342,0.16427 h -1.830411 l 0.539737,-2.62828 h 2.27628 l 0.65707,-1.36108 -1.736543,-13.02407 h 3.261885 l 0.469336,4.64642 0.37547,4.5995 h 0.1408 l 2.06508,-4.5995 z"
         style="font-style:italic;font-weight:bold;font-family:'IBM Plex Sans';-inkscape-font-specification:'IBM Plex Sans, Bold Italic'"
         id="path41274" />
      <path
         d="m 117.68441,175.2221 q -0.86827,0 -1.29067,-0.32853 -0.39894,-0.32854 -0.39894,-0.89174 0,-0.2112 0.0469,-0.46934 0.0469,-0.25813 0.0939,-0.46933 0.0704,-0.30507 0.21121,-0.61014 0.1408,-0.30507 0.39893,-0.53974 0.25814,-0.23467 0.65707,-0.37547 0.39894,-0.16426 0.98561,-0.16426 0.86827,0 1.2672,0.32853 0.42241,0.32854 0.42241,0.89174 0,0.2112 -0.0469,0.46934 -0.0469,0.25813 -0.0939,0.46933 -0.0704,0.30507 -0.21121,0.61014 -0.1408,0.30507 -0.39893,0.53974 -0.25814,0.23466 -0.65707,0.39893 -0.39894,0.1408 -0.98561,0.1408 z m -1.87734,13.68115 q -0.96214,0 -1.54881,-0.51627 -0.5632,-0.51627 -0.5632,-1.36108 0,-0.23467 0.0704,-0.58667 l 1.97121,-9.85605 h 3.28535 l -1.94774,9.69178 h 1.38454 l -0.51627,2.62829 z"
         style="font-style:italic;font-weight:bold;font-family:'IBM Plex Sans';-inkscape-font-specification:'IBM Plex Sans, Bold Italic'"
         id="path41276" />
      <path
         d="m 119.86679,188.90325 2.46401,-12.32007 h 3.28535 l -0.5632,2.86295 h 0.1408 q 0.704,-1.47841 1.66614,-2.29975 0.96214,-0.84481 2.41708,-0.84481 1.43148,0 2.18242,0.84481 0.7744,0.82134 0.7744,2.34668 0,0.44587 -0.0704,0.86827 -0.0469,0.39894 -0.1408,0.86827 l -1.00907,5.04536 h 1.24374 l -0.51627,2.62829 h -2.13548 q -0.93867,0 -1.45494,-0.46934 -0.51627,-0.4928 -0.51627,-1.31414 0,-0.2112 0.0235,-0.37547 0.0235,-0.18773 0.0469,-0.2816 l 0.96214,-4.8811 q 0.0704,-0.32853 0.11733,-0.6336 0.0469,-0.32853 0.0469,-0.68054 0,-0.53973 -0.2816,-0.86827 -0.2816,-0.352 -0.96214,-0.352 -0.61013,0 -1.10294,0.32854 -0.4928,0.32853 -0.89173,0.79787 -0.42241,0.4928 -0.72748,1.10294 -0.30506,0.58667 -0.44586,1.29067 l -1.26721,6.33604 z"
         style="font-style:italic;font-weight:bold;font-family:'IBM Plex Sans';-inkscape-font-specification:'IBM Plex Sans, Bold Italic'"
         id="path41278" />
      <path
         d="m 135.75376,188.90325 -1.52534,-12.32007 h 3.26188 l 0.39894,4.64642 0.352,4.7403 h 0.16427 l 2.06508,-4.7403 2.18241,-4.64642 h 3.49655 l -6.40643,12.32007 z"
         style="font-style:italic;font-weight:bold;font-family:'IBM Plex Sans';-inkscape-font-specification:'IBM Plex Sans, Bold Italic'"
         id="path41280" />
      <path
         d="m 155.01997,188.90325 q -0.89173,0 -1.4784,-0.46934 -0.58667,-0.46934 -0.58667,-1.33761 0,-0.18773 0.0235,-0.39893 0.0235,-0.2112 0.0469,-0.30507 l 0.0704,-0.352 h -0.1408 q -0.72748,1.50187 -1.64268,2.32321 -0.91521,0.82134 -2.37015,0.82134 -0.86827,0 -1.50187,-0.30507 -0.61014,-0.32854 -1.00908,-0.89174 -0.39893,-0.58667 -0.58667,-1.36107 -0.18773,-0.79787 -0.18773,-1.71308 0,-1.97121 0.44587,-3.54349 0.46934,-1.59574 1.24374,-2.72215 0.7744,-1.1264 1.80694,-1.73654 1.05601,-0.61014 2.22935,-0.61014 1.29067,0 2.11201,0.70401 0.84481,0.704 0.96214,1.71308 h 0.11733 l 0.42241,-2.13548 h 3.28535 l -1.94775,9.69178 h 1.38455 l -0.51627,2.62829 z m -4.45869,-2.41708 q 0.63361,0 1.14987,-0.32854 0.51627,-0.32853 0.89174,-0.79787 0.39894,-0.46934 0.68054,-1.10294 0.30507,-0.65707 0.44587,-1.33761 l 0.37547,-1.87734 q 0.18773,-0.86827 -0.352,-1.45494 -0.53974,-0.58667 -1.57228,-0.58667 -2.13548,0 -2.69868,2.74561 l -0.32854,1.64268 q -0.0469,0.25813 -0.0939,0.65707 -0.0469,0.39893 -0.0469,0.68054 0,0.82133 0.39894,1.29067 0.4224,0.46934 1.14987,0.46934 z"
         style="font-style:italic;font-weight:bold;font-family:'IBM Plex Sans';-inkscape-font-specification:'IBM Plex Sans, Bold Italic'"
         id="path41282" />
      <path
         d="m 163.79655,189.18485 q -1.54881,0 -2.83948,-0.53974 -1.29068,-0.53973 -2.11201,-1.61921 l 2.06508,-1.92428 q 0.51626,0.68054 1.1968,1.07948 0.70401,0.37547 1.76001,0.37547 1.14988,0 1.61921,-0.39894 0.4928,-0.4224 0.4928,-0.96214 0,-0.352 -0.25813,-0.6336 -0.23467,-0.2816 -0.89174,-0.37547 l -1.24374,-0.16427 q -1.59574,-0.2112 -2.44055,-1.00907 -0.8448,-0.82134 -0.8448,-2.29975 0,-0.86827 0.30507,-1.66614 0.30507,-0.79787 0.93867,-1.40801 0.6336,-0.61013 1.59574,-0.96214 0.96214,-0.37547 2.27628,-0.37547 1.43148,0 2.58135,0.49281 1.17334,0.46933 1.99468,1.45494 l -2.06508,1.92428 q -0.44587,-0.56321 -1.14987,-0.89174 -0.68054,-0.352 -1.50188,-0.352 -0.82134,0 -1.31414,0.37547 -0.46934,0.352 -0.46934,0.9152 0,0.352 0.23467,0.6336 0.25814,0.28161 0.91521,0.37547 l 1.24374,0.16427 q 1.59574,0.2112 2.44054,1.03254 0.84481,0.79787 0.84481,2.25281 0,0.89174 -0.352,1.71308 -0.32854,0.82134 -1.00908,1.45494 -0.68053,0.61014 -1.68961,0.98561 -1.00907,0.352 -2.32321,0.352 z"
         style="font-style:italic;font-weight:bold;font-family:'IBM Plex Sans';-inkscape-font-specification:'IBM Plex Sans, Bold Italic'"
         id="path41284" />
      <path
         d="m 175.20141,175.2221 q -0.86827,0 -1.29067,-0.32853 -0.39894,-0.32854 -0.39894,-0.89174 0,-0.2112 0.0469,-0.46934 0.0469,-0.25813 0.0939,-0.46933 0.0704,-0.30507 0.2112,-0.61014 0.1408,-0.30507 0.39894,-0.53974 0.25813,-0.23467 0.65707,-0.37547 0.39894,-0.16426 0.98561,-0.16426 0.86827,0 1.2672,0.32853 0.4224,0.32854 0.4224,0.89174 0,0.2112 -0.0469,0.46934 -0.0469,0.25813 -0.0939,0.46933 -0.0704,0.30507 -0.2112,0.61014 -0.1408,0.30507 -0.39893,0.53974 -0.25814,0.23466 -0.65707,0.39893 -0.39894,0.1408 -0.98561,0.1408 z m -1.87734,13.68115 q -0.96214,0 -1.54881,-0.51627 -0.5632,-0.51627 -0.5632,-1.36108 0,-0.23467 0.0704,-0.58667 l 1.97121,-9.85605 h 3.28535 l -1.94775,9.69178 h 1.38455 l -0.51627,2.62829 z"
         style="font-style:italic;font-weight:bold;font-family:'IBM Plex Sans';-inkscape-font-specification:'IBM Plex Sans, Bold Italic'"
         id="path41286" />
      <path
         d="m 182.68728,189.18485 q -2.27628,0 -3.59042,-1.33761 -1.31414,-1.36107 -1.31414,-3.80162 0,-1.66614 0.46934,-3.07415 0.4928,-1.43148 1.3376,-2.46402 0.84481,-1.03254 1.99468,-1.61921 1.17334,-0.58667 2.55788,-0.58667 2.27628,0 3.59042,1.36108 1.31414,1.33761 1.31414,3.77815 0,1.66615 -0.4928,3.09762 -0.46933,1.40801 -1.31414,2.44055 -0.8448,1.03254 -2.01814,1.61921 -1.17334,0.58667 -2.53442,0.58667 z m 0.11734,-2.65175 q 1.92427,0 2.46401,-2.69868 l 0.44587,-2.20588 q 0.0235,-0.11734 0.0469,-0.30507 0.0235,-0.18773 0.0235,-0.4224 0,-0.89174 -0.44587,-1.40801 -0.44587,-0.53974 -1.31414,-0.53974 -1.92428,0 -2.46402,2.69869 l -0.44586,2.20587 q -0.0235,0.11734 -0.0469,0.30507 -0.0235,0.18774 -0.0235,0.42241 0,0.89173 0.44586,1.43147 0.44587,0.51627 1.31415,0.51627 z"
         style="font-style:italic;font-weight:bold;font-family:'IBM Plex Sans';-inkscape-font-specification:'IBM Plex Sans, Bold Italic'"
         id="path41288" />
      <path
         d="m 190.10278,188.90325 2.46401,-12.32007 h 3.28535 l -0.5632,2.86295 h 0.1408 q 0.70401,-1.47841 1.66614,-2.29975 0.96214,-0.84481 2.41709,-0.84481 1.43147,0 2.18241,0.84481 0.7744,0.82134 0.7744,2.34668 0,0.44587 -0.0704,0.86827 -0.0469,0.39894 -0.1408,0.86827 l -1.00907,5.04536 h 1.24374 l -0.51627,2.62829 h -2.13548 q -0.93867,0 -1.45494,-0.46934 -0.51627,-0.4928 -0.51627,-1.31414 0,-0.2112 0.0235,-0.37547 0.0235,-0.18773 0.0469,-0.2816 l 0.96214,-4.8811 q 0.0704,-0.32853 0.11733,-0.6336 0.0469,-0.32853 0.0469,-0.68054 0,-0.53973 -0.28161,-0.86827 -0.2816,-0.352 -0.96213,-0.352 -0.61014,0 -1.10294,0.32854 -0.49281,0.32853 -0.89174,0.79787 -0.4224,0.4928 -0.72747,1.10294 -0.30507,0.58667 -0.44587,1.29067 l -1.26721,6.33604 z"
         style="font-style:italic;font-weight:bold;font-family:'IBM Plex Sans';-inkscape-font-specification:'IBM Plex Sans, Bold Italic'"
         id="path41290" />
    </g>
  </g>
</svg>
