<?xml version="1.0" encoding="UTF-8" standalone="no"?>
<!-- Created with Inkscape (http://www.inkscape.org/) -->

<svg
   width="226.39011mm"
   height="92.632462mm"
   viewBox="0 0 226.39011 92.632462"
   version="1.1"
   id="svg1921"
   inkscape:version="1.1.2 (0a00cf5339, 2022-02-04)"
   sodipodi:docname="large_black.svg"
   xmlns:inkscape="http://www.inkscape.org/namespaces/inkscape"
   xmlns:sodipodi="http://sodipodi.sourceforge.net/DTD/sodipodi-0.dtd"
   xmlns="http://www.w3.org/2000/svg"
   xmlns:svg="http://www.w3.org/2000/svg">
  <sodipodi:namedview
     id="namedview1923"
     pagecolor="#ffffff"
     bordercolor="#666666"
     borderopacity="1.0"
     inkscape:pageshadow="2"
     inkscape:pageopacity="0.0"
     inkscape:pagecheckerboard="0"
     inkscape:document-units="mm"
     showgrid="false"
     fit-margin-top="0"
     fit-margin-left="0"
     fit-margin-right="0"
     fit-margin-bottom="0"
     inkscape:zoom="0.77771465"
     inkscape:cx="453.89398"
     inkscape:cy="495.68309"
     inkscape:window-width="2560"
     inkscape:window-height="1369"
     inkscape:window-x="0"
     inkscape:window-y="0"
     inkscape:window-maximized="1"
     inkscape:current-layer="layer1" />
  <defs
     id="defs1918" />
  <g
     inkscape:label="Layer 1"
     inkscape:groupmode="layer"
     id="layer1"
     transform="translate(14.875462,-17.302321)">
    <g
       id="g55"
       transform="matrix(0.26458333,0,0,0.26458333,470.59879,746.66515)">
      <path
         inkscape:connector-curvature="0"
         id="path33"
         d="m -1339.73,-2419.86 c -17.36,5.12 -35.42,7.29 -53.68,6.43 -43.38,-2.04 -83.38,-20.85 -112.62,-52.97 -29.24,-32.12 -44.22,-73.7 -42.18,-117.09 1.45,-30.94 11.6,-60.62 29.34,-85.83 17.27,-24.54 40.92,-43.83 68.4,-55.76 1.7,-0.74 2.48,-2.71 1.74,-4.41 -0.74,-1.7 -2.71,-2.48 -4.41,-1.74 -28.6,12.43 -53.23,32.5 -71.21,58.05 -9.64,13.7 -17.13,28.68 -22.3,44.44 l -285.89,92.07 c -1.76,0.57 -2.73,2.46 -2.16,4.22 0.46,1.42 1.77,2.33 3.19,2.33 0.34,0 0.69,-0.05 1.03,-0.16 l 281.48,-90.65 c -3.32,12.04 -5.31,24.49 -5.91,37.14 -2.12,45.17 13.47,88.47 43.92,121.91 30.44,33.44 72.09,53.03 117.26,55.15 2.7,0.13 5.4,0.19 8.09,0.19 16.24,0 32.29,-2.31 47.8,-6.89 1.78,-0.52 2.79,-2.39 2.27,-4.16 -0.52,-1.78 -2.38,-2.79 -4.16,-2.27 z" />
      <path
         inkscape:connector-curvature="0"
         id="path35"
         d="m -979.38,-2687.84 c -0.58,-1.76 -2.47,-2.72 -4.23,-2.14 l -236.85,77.53 c -8.67,-39.2 -31.13,-74.53 -64.17,-99.19 -1.48,-1.11 -3.58,-0.8 -4.69,0.68 -1.11,1.48 -0.8,3.58 0.68,4.69 20.03,14.95 36.01,33.99 47.17,55.46 -1.48,0.36 -2.95,0.75 -4.35,1.29 -5.82,2.23 -11.37,5.03 -16.54,8.53 -2.64,1.79 -5.32,3.52 -7.91,5.37 -13.93,-27.16 -36.66,-48.41 -65.05,-60.51 -32.09,-13.67 -67.55,-14.02 -99.84,-0.97 -17.43,7.04 -32.77,17.47 -45.61,31.01 -1.27,1.34 -1.22,3.47 0.12,4.74 1.34,1.27 3.46,1.22 4.74,-0.12 12.18,-12.83 26.73,-22.73 43.26,-29.41 30.63,-12.38 64.26,-12.05 94.7,0.92 26.71,11.38 48.14,31.3 61.39,56.76 -2.05,0.01 -4.09,-0.74 -6.12,-2.12 -1.93,-1.31 -3.82,-2.68 -5.69,-4.08 -3.23,-2.42 -7.49,-2.78 -10.14,0.64 -1.07,1.38 -2.54,1.73 -4.19,1.21 -1.29,-0.4 -2.64,-0.72 -3.82,-1.35 -2.21,-1.19 -4.43,-2.45 -6.46,-3.93 -2.68,-1.96 -5.51,-2.62 -8.78,-2.04 -2.83,0.49 -5.43,1.5 -7.73,3.02 -0.12,-0.14 -0.24,-0.27 -0.38,-0.39 -15.7,-13.26 -35.7,-20.57 -56.3,-20.57 -22.2,0 -42.48,8.32 -57.89,22 -0.83,-0.49 -1.82,-0.85 -2.99,-1.05 -5.26,-0.87 -10.14,0.31 -14.15,3.82 -2.39,2.09 -4.34,4.68 -6.42,7.11 -2.27,2.66 -4.44,5.4 -6.64,8.1 -3.22,3.95 -7.34,4.07 -11.61,2.42 -1.92,-0.74 -3.71,-2.07 -5.3,-3.43 -1.69,-1.44 -2.99,-3.33 -4.61,-4.86 -0.74,-0.71 -1.58,-1.37 -2.47,-1.96 -1.29,-0.84 -2.72,-1.54 -4.22,-2.05 -6.42,-2.21 -14.37,-0.98 -19.43,7.57 -1.31,2.22 -2.45,4.77 -2.78,7.29 -0.73,5.47 -1.23,11.02 -1.19,16.53 0.05,6.32 3.99,10.36 10.25,11.61 0.16,0.03 0.33,0.06 0.49,0.08 1.59,0.29 3.15,0.34 4.7,0.23 2.02,-0.14 4.02,-0.58 6.01,-1.21 2.31,-0.73 4.62,-1.53 6.99,-2 4.02,-0.79 6.28,0.66 7.58,4.53 0.93,2.74 0.85,5.57 0.44,8.37 -1,6.81 -2.15,13.61 -3.19,20.42 -0.7,4.59 -0.6,9.11 1.5,13.4 1.96,4 5.08,6.61 9.66,6.34 6.07,-0.36 11.15,-1.66 14.84,-2.84 2.32,5.53 5.2,10.76 8.56,15.65 -0.83,0.63 -1.61,1.34 -2.34,2.16 -4.09,4.61 -6.93,9.86 -8.21,15.86 -0.49,2.35 -0.56,4.82 -0.51,7.23 0.06,3.1 2.02,4.94 4.79,5.94 2.73,0.98 5.36,0.76 7.79,-0.9 1.12,-0.77 2.19,-1.62 3.35,-2.33 2.11,-1.32 3.61,-1.01 4.87,1.17 0.72,1.25 1.28,2.64 1.62,4.03 0.87,3.58 1.66,7.19 2.34,10.81 1.31,6.96 3.7,13.49 7.91,19.23 0.31,0.43 0.66,0.84 1,1.26 -28.72,-12.55 -52.78,-35.92 -65.44,-67.25 -0.69,-1.72 -2.65,-2.55 -4.36,-1.85 -1.72,0.69 -2.55,2.65 -1.85,4.36 20.56,50.9 69.64,81.86 121.31,81.86 16.2,0 32.66,-3.05 48.57,-9.47 32.3,-13.05 57.56,-37.93 71.15,-70.05 1.92,-4.54 3.56,-9.15 4.95,-13.81 4.6,3.25 9.78,5.47 15.31,7.08 5.14,1.49 10.37,2.58 15.77,2.29 -4.78,15.99 -12.02,31.19 -21.52,45.06 -1.05,1.53 -0.66,3.61 0.87,4.66 0.58,0.4 1.24,0.59 1.89,0.59 1.07,0 2.12,-0.51 2.77,-1.46 17.72,-25.86 27.87,-56.17 29.35,-87.64 0.6,-12.84 -0.26,-25.56 -2.48,-37.93 l 237.61,-77.78 c 1.76,-0.57 2.72,-2.46 2.15,-4.22 z m -355.29,50.35 c -6.09,5.59 -11.55,11.77 -15.76,19.01 -1.12,1.92 -2.21,3.88 -3.43,5.75 -2.53,3.92 -6.18,5.84 -10.86,5.47 -2.71,-0.21 -5.4,-0.67 -8.09,-1.03 -3.29,-0.44 -6.59,-0.77 -9.8,0.4 -8.39,3.07 -16.9,5.87 -24.23,11.21 -0.32,0.23 -0.64,0.44 -1,0.6 -1.74,0.82 -3.38,-0.28 -3.23,-2.23 0.06,-0.75 0.32,-1.54 0.65,-2.22 1.78,-3.67 3.46,-7.39 5.48,-10.92 1.62,-2.82 2.43,-5.67 2.11,-8.88 -0.23,-2.28 -0.53,-4.58 -2.84,-5.7 -2.26,-1.1 -4.09,0.19 -5.87,1.46 -0.63,0.45 -1.33,0.81 -2.22,1.27 -0.47,0.25 -1.03,-0.15 -0.94,-0.67 0.07,-0.42 0.12,-0.72 0.21,-1.01 1.74,-5.47 -2.6,-9.52 -8.3,-8.16 -2.56,0.61 -4.63,1.96 -6.43,3.8 -3.06,3.12 -5.99,6.39 -9.23,9.31 -1.84,1.66 -4.1,2.91 -6.32,4.07 -1.29,0.67 -2.8,1.03 -4.3,0.2 -0.25,-0.14 -0.39,-0.41 -0.34,-0.69 0.46,-2.63 1.35,-5.01 2.76,-7.21 1.11,-1.72 2.39,-3.33 3.31,-5.14 0.86,-1.68 1.65,-3.51 1.92,-5.36 14.42,-13.59 33.85,-21.95 55.21,-21.95 18.86,0.02 37.12,6.63 51.54,18.62 z m -97.91,91.93 c -1.62,2.29 -2.87,4.83 -4.22,7.31 -2.17,3.98 -5.32,6.62 -9.82,7.55 -1.62,0.33 -3.25,0.6 -4.85,0.97 -0.14,0.03 -0.27,0.08 -0.4,0.11 -3.31,-4.67 -6.16,-9.69 -8.42,-15.01 4.36,-1.58 8.6,-3.38 12.63,-5.69 8.92,-5.14 17.65,-10.6 25.9,-16.8 3.64,-2.74 7.44,-5.31 11.31,-7.71 1.95,-1.21 4.17,-2.15 6.39,-2.75 5.38,-1.45 9.13,1.77 8.52,7.3 -0.52,4.68 -2.81,8.54 -6.73,11.11 -4.89,3.22 -10.39,4.85 -16.27,4.67 -3.42,-0.11 -6.39,0.85 -8.83,3.1 -1.92,1.74 -3.7,3.72 -5.21,5.84 z m 92.88,84.72 c -26.99,10.9 -55.62,11.54 -81.57,3.76 1.97,-1.18 3.53,-3.3 4.36,-6.24 1.05,-3.72 1.1,-7.54 0.25,-11.26 -0.91,-3.96 -2.31,-7.8 -3.42,-11.72 -1.01,-3.57 -2.18,-7.12 -2.87,-10.75 11.18,5.21 23.65,8.13 36.79,8.13 9.01,0 17.89,-1.37 26.4,-4.06 1.77,-0.56 2.74,-2.44 2.18,-4.21 -0.56,-1.77 -2.44,-2.74 -4.21,-2.18 -7.85,2.49 -16.06,3.75 -24.38,3.75 -12.75,0 -24.8,-2.98 -35.52,-8.27 0.95,-0.68 2.33,-1.1 4.21,-1.37 0.38,-0.05 0.79,-0.01 1.15,-0.13 2.3,-0.74 4.74,-1.22 6.85,-2.33 4.09,-2.18 5.67,-6.14 4.53,-10.63 -0.48,-1.88 -1.21,-3.69 -1.83,-5.53 -0.62,-1.84 -1.39,-3.64 -1.84,-5.52 -0.55,-2.28 -0.98,-4.73 1.08,-6.54 2,-1.76 4.36,-1.27 6.62,-0.47 3.39,1.21 6.8,2.35 10.1,3.75 5.59,2.37 11.42,3.84 17.33,4.99 6.74,1.31 12.97,0.52 17.79,-5.16 0.89,-1.05 2.14,-1.79 3.26,-2.64 0.18,-0.14 0.43,-0.17 0.64,-0.08 0,0 0.01,0 0.01,0 0.24,0.1 0.4,0.34 0.4,0.6 -0.01,0.8 -0.02,1.6 0.01,2.4 0.03,0.97 0.02,1.95 0.19,2.9 0.64,3.51 2.99,5.18 6.49,4.63 0.86,-0.14 1.72,-0.36 2.54,-0.63 1.48,-0.48 2.6,-0.08 3.59,1.12 1.67,2.02 2.71,4.33 2.76,6.91 0.03,2.04 -0.02,4.08 -0.1,6.12 -0.06,1.35 -0.13,2.7 -0.19,4.06 -0.03,0.67 -0.07,1.35 -0.11,2.02 -0.18,3.01 -0.45,6.01 -0.47,9.03 -0.02,3.33 0.63,6.58 2.51,9.44 1.88,2.86 4.58,3.99 7.8,3.06 4.37,-1.26 8.12,-3.65 10,-7.87 2.96,-6.64 4.45,-13.72 3.64,-21 -0.5,-4.52 -1.52,-8.91 -3.02,-13.17 -0.62,-1.77 -1.33,-3.51 -2.11,-5.23 -0.32,-0.72 -0.67,-1.44 -1.03,-2.15 -0.69,-1.38 -1.3,-2.86 -1.62,-4.35 -0.91,-4.2 2.09,-7.58 6.37,-7.24 1.07,0.09 2.14,0.39 3.2,0.68 0.16,0.04 0.33,0.09 0.49,0.13 1.37,0.35 2.72,0.75 4.08,1.12 0.7,0.19 1.39,0.37 2.1,0.53 6.44,1.5 12.34,0.5 17.51,-3.84 1.41,-1.18 2.88,-2.32 4.44,-3.3 2.7,-1.7 5.55,-1.9 8.19,0.05 2.49,1.84 5.03,3.71 7.13,5.96 0.1,0.1 0.2,0.2 0.3,0.3 -1.47,5.41 -3.31,10.76 -5.53,16 -12.87,30.45 -36.84,54.05 -67.47,66.43 z" />
      <polygon
         id="polygon37"
         points="-1792.54,-2457.23 -1802,-2518.01 -1812.44,-2514.57 -1802.98,-2453.78 " />
      <polygon
         id="polygon39"
         points="-1733.84,-2476.61 -1743.31,-2537.4 -1753.69,-2533.97 -1747.22,-2492.54 -1747.73,-2492.38 -1781.33,-2524.84 -1790.67,-2521.76 -1781.2,-2460.97 -1770.76,-2464.42 -1777.17,-2505.84 -1776.69,-2506 -1743.13,-2473.55 " />
      <polygon
         id="polygon41"
         points="-1733.08,-2531.07 -1715.27,-2536.96 -1707.23,-2485.4 -1696.88,-2488.82 -1704.92,-2540.38 -1687.1,-2546.26 -1688.53,-2555.49 -1734.51,-2540.31 " />
      <polygon
         id="polygon43"
         points="-1632.51,-2510.08 -1633.94,-2519.32 -1661.2,-2510.31 -1663.81,-2526.9 -1638.71,-2535.19 -1640.14,-2544.42 -1665.24,-2536.13 -1667.81,-2552.63 -1640.77,-2561.56 -1642.2,-2570.8 -1679.68,-2558.42 -1670.21,-2497.63 " />
      <path
         inkscape:connector-curvature="0"
         id="path45"
         d="m -1593.24,-2548.93 c 2.8,-2.57 4.77,-5.54 5.89,-8.92 1.12,-3.38 1.37,-7 0.76,-10.88 -0.6,-3.9 -1.9,-7.05 -3.91,-9.46 -2,-2.41 -4.63,-3.92 -7.9,-4.54 -3.26,-0.62 -7.11,-0.2 -11.53,1.27 l -21.61,7.14 9.47,60.79 10.44,-3.45 -3.45,-22.27 10.6,-3.5 14.79,18.52 11.65,-3.85 -16.23,-19.97 c 0.35,-0.28 0.7,-0.57 1.03,-0.88 z m -4.31,-10.45 c -0.57,1.74 -1.62,3.26 -3.14,4.56 -1.53,1.3 -3.58,2.38 -6.17,3.24 l -9.64,3.18 -3.13,-20.19 9.57,-3.16 c 2.59,-0.85 4.77,-1.15 6.54,-0.9 1.77,0.26 3.18,1.02 4.22,2.27 1.04,1.26 1.73,2.98 2.08,5.15 0.34,2.17 0.24,4.12 -0.33,5.85 z" />
      <path
         inkscape:connector-curvature="0"
         id="path47"
         d="m -1193.24,-2641.99 -3.18,-20.54 10.99,-3.63 c 4.46,-1.47 8.08,-3.58 10.85,-6.31 2.77,-2.74 4.7,-5.87 5.78,-9.42 1.09,-3.54 1.32,-7.26 0.7,-11.15 -0.6,-3.88 -1.9,-7.08 -3.92,-9.61 -2.02,-2.53 -4.68,-4.16 -7.97,-4.89 -3.29,-0.73 -7.14,-0.37 -11.55,1.08 l -21.61,7.14 9.47,60.79 z m 1.57,-54.76 c 2.59,-0.86 4.78,-1.1 6.58,-0.72 1.8,0.37 3.22,1.25 4.27,2.62 1.05,1.37 1.74,3.14 2.08,5.32 0.36,2.15 0.26,4.19 -0.28,6.11 -0.54,1.92 -1.56,3.64 -3.08,5.14 -1.51,1.5 -3.56,2.68 -6.15,3.53 l -9.59,3.17 -3.41,-22 z" />
      <polygon
         id="polygon49"
         points="-1162.23,-2716.15 -1152.77,-2655.36 -1115.06,-2667.81 -1116.49,-2677.05 -1143.75,-2668.04 -1146.36,-2684.63 -1121.26,-2692.92 -1122.69,-2702.15 -1147.79,-2693.86 -1150.37,-2710.36 -1123.33,-2719.29 -1124.75,-2728.53 " />
      <polygon
         id="polygon51"
         points="-1114.08,-2732.05 -1104.62,-2671.26 -1066.91,-2683.72 -1068.34,-2692.95 -1095.6,-2683.95 -1098.21,-2700.53 -1073.11,-2708.82 -1074.54,-2718.05 -1099.64,-2709.76 -1102.22,-2726.26 -1075.18,-2735.2 -1076.6,-2744.43 " />
      <path
         inkscape:connector-curvature="0"
         id="path53"
         d="m -1046.03,-2690.62 -3.45,-22.27 10.6,-3.5 14.79,18.52 11.65,-3.85 -16.23,-19.97 c 0.35,-0.29 0.7,-0.58 1.03,-0.88 2.8,-2.57 4.77,-5.54 5.89,-8.92 1.12,-3.38 1.37,-7 0.76,-10.88 -0.6,-3.9 -1.9,-7.05 -3.91,-9.46 -2,-2.41 -4.63,-3.92 -7.9,-4.54 -3.26,-0.62 -7.11,-0.2 -11.53,1.27 l -21.61,7.14 9.47,60.79 z m 1.58,-54.76 c 2.59,-0.86 4.77,-1.15 6.54,-0.9 1.77,0.26 3.18,1.02 4.22,2.27 1.04,1.26 1.73,2.98 2.08,5.15 0.36,2.15 0.25,4.09 -0.32,5.83 -0.57,1.74 -1.62,3.26 -3.14,4.56 -1.53,1.3 -3.58,2.38 -6.17,3.24 l -9.64,3.18 -3.13,-20.19 z" />
    </g>
  </g>
</svg>
